(export (version D)
  (design
    (source /home/nfraprado/cur/ledsticker/ledsticker-hw/kicad/ledsticker.sch)
    (date "Tue 06 Oct 2020 02:53:20 PM -03")
    (tool "Eeschema 5.1.6")
    (sheet (number 1) (name /) (tstamps /)
      (title_block
        (title Ledsticker)
        (company)
        (rev v01)
        (date 2020-05-31)
        (source ledsticker.sch)
        (comment (number 1) (value ""))
        (comment (number 2) (value ""))
        (comment (number 3) (value ""))
        (comment (number 4) (value "Author: Nícolas F. R. A. Prado")))))
  (components
    (comp (ref U1)
      (value MCP2210x-SO)
      (footprint Package_SO:SOIC-20W_7.5x12.8mm_P1.27mm)
      (datasheet https://ww1.microchip.com/downloads/en/DeviceDoc/22288A.pdf)
      (libsource (lib Interface_USB) (part MCP2210x-SO) (description "USB to SPI Protocol Converter with GPIO, SOIC-20"))
      (sheetpath (names /) (tstamps /))
      (tstamp 5EC2FA8E))
    (comp (ref U2)
      (value MAX7219)
      (footprint Package_DIP:DIP-24_W7.62mm_Socket)
      (datasheet https://datasheets.maximintegrated.com/en/ds/MAX7219-MAX7221.pdf)
      (libsource (lib Driver_LED) (part MAX7219) (description "8-Digit LED Display Driver"))
      (sheetpath (names /) (tstamps /))
      (tstamp 5EC30E97))
    (comp (ref D1)
      (value 8x8_Ledmatrix)
      (footprint ledsticker:LEDMATRIX8x8)
      (libsource (lib Ledsticker) (part 8x8_Ledmatrix) (description ""))
      (sheetpath (names /) (tstamps /))
      (tstamp 5ED43CCF))
    (comp (ref C3)
      (value 0.1uF)
      (footprint Capacitor_THT:C_Disc_D5.1mm_W3.2mm_P5.00mm)
      (datasheet ~)
      (libsource (lib Device) (part C) (description "Unpolarized capacitor"))
      (sheetpath (names /) (tstamps /))
      (tstamp 5ED4FC86))
    (comp (ref R2)
      (value 10k)
      (footprint Resistor_THT:R_Axial_DIN0207_L6.3mm_D2.5mm_P10.16mm_Horizontal)
      (datasheet ~)
      (libsource (lib Device) (part R_US) (description "Resistor, US symbol"))
      (sheetpath (names /) (tstamps /))
      (tstamp 5ED4E3A1))
    (comp (ref J1)
      (value USB_B_Mini)
      (footprint Connector_USB:USB_Mini-B_Wuerth_65100516121_Horizontal)
      (datasheet ~)
      (libsource (lib Connector) (part USB_B_Mini) (description "USB Mini Type B connector"))
      (sheetpath (names /) (tstamps /))
      (tstamp 5ED44C0D))
    (comp (ref R1)
      (value 390)
      (footprint Resistor_THT:R_Axial_DIN0207_L6.3mm_D2.5mm_P10.16mm_Horizontal)
      (datasheet ~)
      (libsource (lib Device) (part R_US) (description "Resistor, US symbol"))
      (sheetpath (names /) (tstamps /))
      (tstamp 5EDA0E47))
    (comp (ref C2)
      (value 10uF)
      (footprint Capacitor_THT:CP_Radial_D5.0mm_P2.50mm)
      (datasheet ~)
      (libsource (lib Device) (part CP1) (description "Polarized capacitor, US symbol"))
      (sheetpath (names /) (tstamps /))
      (tstamp 5ED4F670))
    (comp (ref C1)
      (value 0.47uF)
      (footprint Capacitor_THT:C_Disc_D5.1mm_W3.2mm_P5.00mm)
      (datasheet ~)
      (libsource (lib Device) (part C) (description "Unpolarized capacitor"))
      (sheetpath (names /) (tstamps /))
      (tstamp 5ED66E75))
    (comp (ref Y1)
      (value 12MHz)
      (footprint Crystal:Crystal_HC49-U_Vertical)
      (datasheet ~)
      (libsource (lib Device) (part Crystal) (description "Two pin crystal"))
      (sheetpath (names /) (tstamps /))
      (tstamp 5ED77FDB)))
  (libparts
    (libpart (lib Connector) (part USB_B_Micro)
      (aliases
        (alias USB_B_Mini))
      (description "USB Micro Type B connector")
      (docs ~)
      (footprints
        (fp USB*))
      (fields
        (field (name Reference) J)
        (field (name Value) USB_B_Micro))
      (pins
        (pin (num 1) (name VBUS) (type power_out))
        (pin (num 2) (name D-) (type passive))
        (pin (num 3) (name D+) (type passive))
        (pin (num 4) (name ID) (type passive))
        (pin (num 5) (name GND) (type power_out))
        (pin (num 6) (name Shield) (type passive))))
    (libpart (lib Device) (part C)
      (description "Unpolarized capacitor")
      (docs ~)
      (footprints
        (fp C_*))
      (fields
        (field (name Reference) C)
        (field (name Value) C))
      (pins
        (pin (num 1) (name ~) (type passive))
        (pin (num 2) (name ~) (type passive))))
    (libpart (lib Device) (part CP1)
      (description "Polarized capacitor, US symbol")
      (docs ~)
      (footprints
        (fp CP_*))
      (fields
        (field (name Reference) C)
        (field (name Value) CP1))
      (pins
        (pin (num 1) (name ~) (type passive))
        (pin (num 2) (name ~) (type passive))))
    (libpart (lib Device) (part Crystal)
      (description "Two pin crystal")
      (docs ~)
      (footprints
        (fp Crystal*))
      (fields
        (field (name Reference) Y)
        (field (name Value) Crystal))
      (pins
        (pin (num 1) (name 1) (type passive))
        (pin (num 2) (name 2) (type passive))))
    (libpart (lib Device) (part R_US)
      (description "Resistor, US symbol")
      (docs ~)
      (footprints
        (fp R_*))
      (fields
        (field (name Reference) R)
        (field (name Value) R_US))
      (pins
        (pin (num 1) (name ~) (type passive))
        (pin (num 2) (name ~) (type passive))))
    (libpart (lib Driver_LED) (part MAX7219)
      (description "8-Digit LED Display Driver")
      (docs https://datasheets.maximintegrated.com/en/ds/MAX7219-MAX7221.pdf)
      (footprints
        (fp SOIC*7.5x15.4mm*P1.27mm*)
        (fp DIP*7.62mm*))
      (fields
        (field (name Reference) U)
        (field (name Value) MAX7219))
      (pins
        (pin (num 1) (name DIN) (type input))
        (pin (num 2) (name DIG_0) (type output))
        (pin (num 3) (name DIG_4) (type output))
        (pin (num 4) (name GND) (type power_in))
        (pin (num 5) (name DIG_6) (type output))
        (pin (num 6) (name DIG_2) (type output))
        (pin (num 7) (name DIG_3) (type output))
        (pin (num 8) (name DIG_7) (type output))
        (pin (num 9) (name GND) (type passive))
        (pin (num 10) (name DIG_5) (type output))
        (pin (num 11) (name DIG_1) (type output))
        (pin (num 12) (name LOAD) (type input))
        (pin (num 13) (name CLK) (type input))
        (pin (num 14) (name SEG_A) (type output))
        (pin (num 15) (name SEG_F) (type output))
        (pin (num 16) (name SEG_B) (type output))
        (pin (num 17) (name SEG_G) (type output))
        (pin (num 18) (name ISET) (type input))
        (pin (num 19) (name V+) (type power_in))
        (pin (num 20) (name SEG_C) (type output))
        (pin (num 21) (name SEG_E) (type output))
        (pin (num 22) (name SEG_DP) (type output))
        (pin (num 23) (name SEG_D) (type output))
        (pin (num 24) (name DOUT) (type output))))
    (libpart (lib Interface_USB) (part MCP2210x-SO)
      (description "USB to SPI Protocol Converter with GPIO, SOIC-20")
      (docs https://ww1.microchip.com/downloads/en/DeviceDoc/22288A.pdf)
      (footprints
        (fp SOIC*7.5x12.8mm*P1.27mm*))
      (fields
        (field (name Reference) U)
        (field (name Value) MCP2210x-SO)
        (field (name Footprint) Package_SO:SOIC-20W_7.5x12.8mm_P1.27mm))
      (pins
        (pin (num 1) (name VDD) (type power_in))
        (pin (num 2) (name OSC1) (type input))
        (pin (num 3) (name OSC2) (type output))
        (pin (num 4) (name ~RST) (type input))
        (pin (num 5) (name GP0) (type BiDi))
        (pin (num 6) (name GP1) (type BiDi))
        (pin (num 7) (name GP2) (type BiDi))
        (pin (num 8) (name GP3) (type BiDi))
        (pin (num 9) (name MOSI) (type output))
        (pin (num 10) (name GP4) (type BiDi))
        (pin (num 11) (name SCK) (type output))
        (pin (num 12) (name GP5) (type BiDi))
        (pin (num 13) (name MISO) (type input))
        (pin (num 14) (name GP6) (type BiDi))
        (pin (num 15) (name GP7) (type BiDi))
        (pin (num 16) (name GP8) (type BiDi))
        (pin (num 17) (name VUSB) (type passive))
        (pin (num 18) (name D-) (type BiDi))
        (pin (num 19) (name D+) (type BiDi))
        (pin (num 20) (name VSS) (type power_in))))
    (libpart (lib Ledsticker) (part 8x8_Ledmatrix)
      (fields
        (field (name Reference) D)
        (field (name Value) 8x8_Ledmatrix))
      (pins
        (pin (num 1) (name COL0) (type input))
        (pin (num 2) (name COL1) (type input))
        (pin (num 3) (name COL2) (type input))
        (pin (num 4) (name COL3) (type input))
        (pin (num 5) (name COL4) (type input))
        (pin (num 6) (name COL5) (type input))
        (pin (num 7) (name COL6) (type input))
        (pin (num 8) (name COL7) (type input))
        (pin (num 9) (name ROW0) (type input))
        (pin (num 10) (name ROW1) (type input))
        (pin (num 11) (name ROW2) (type input))
        (pin (num 12) (name ROW3) (type input))
        (pin (num 13) (name ROW4) (type input))
        (pin (num 14) (name ROW5) (type input))
        (pin (num 15) (name ROW6) (type input))
        (pin (num 16) (name ROW7) (type input)))))
  (libraries
    (library (logical Connector)
      (uri /usr/share/kicad/library/Connector.lib))
    (library (logical Device)
      (uri /usr/share/kicad/library/Device.lib))
    (library (logical Driver_LED)
      (uri /usr/share/kicad/library/Driver_LED.lib))
    (library (logical Interface_USB)
      (uri /usr/share/kicad/library/Interface_USB.lib))
    (library (logical Ledsticker)
      (uri /home/nfraprado/cur/ledsticker/ledsticker-hw/kicad/Ledsticker.lib)))
  (nets
    (net (code 1) (name "Net-(J1-Pad6)")
      (node (ref J1) (pin 6)))
    (net (code 2) (name "Net-(J1-Pad3)")
      (node (ref J1) (pin 3))
      (node (ref U1) (pin 19)))
    (net (code 3) (name "Net-(J1-Pad2)")
      (node (ref J1) (pin 2))
      (node (ref U1) (pin 18)))
    (net (code 4) (name "Net-(U1-Pad11)")
      (node (ref U2) (pin 13))
      (node (ref U1) (pin 11)))
    (net (code 5) (name GND)
      (node (ref C1) (pin 2))
      (node (ref C2) (pin 2))
      (node (ref J1) (pin 5))
      (node (ref U1) (pin 20))
      (node (ref U2) (pin 9))
      (node (ref U2) (pin 4))
      (node (ref C3) (pin 2)))
    (net (code 6) (name "Net-(J1-Pad4)")
      (node (ref J1) (pin 4)))
    (net (code 7) (name "Net-(U1-Pad13)")
      (node (ref U1) (pin 13)))
    (net (code 8) (name "Net-(U1-Pad9)")
      (node (ref U1) (pin 9))
      (node (ref U2) (pin 1)))
    (net (code 9) (name "Net-(U1-Pad8)")
      (node (ref U2) (pin 12))
      (node (ref U1) (pin 8)))
    (net (code 10) (name "Net-(U1-Pad5)")
      (node (ref U1) (pin 5)))
    (net (code 11) (name "Net-(U1-Pad6)")
      (node (ref U1) (pin 6)))
    (net (code 12) (name "Net-(U1-Pad7)")
      (node (ref U1) (pin 7)))
    (net (code 13) (name "Net-(U1-Pad10)")
      (node (ref U1) (pin 10)))
    (net (code 14) (name VCC)
      (node (ref U2) (pin 19))
      (node (ref R1) (pin 1))
      (node (ref U1) (pin 1))
      (node (ref C2) (pin 1))
      (node (ref J1) (pin 1))
      (node (ref C3) (pin 1))
      (node (ref R2) (pin 2)))
    (net (code 15) (name "Net-(R2-Pad1)")
      (node (ref R2) (pin 1))
      (node (ref U2) (pin 18)))
    (net (code 16) (name "Net-(U1-Pad12)")
      (node (ref U1) (pin 12)))
    (net (code 17) (name "Net-(C1-Pad1)")
      (node (ref C1) (pin 1))
      (node (ref U1) (pin 17)))
    (net (code 18) (name "Net-(U1-Pad2)")
      (node (ref Y1) (pin 1))
      (node (ref U1) (pin 2)))
    (net (code 19) (name "Net-(U1-Pad3)")
      (node (ref U1) (pin 3))
      (node (ref Y1) (pin 2)))
    (net (code 20) (name "Net-(U1-Pad14)")
      (node (ref U1) (pin 14)))
    (net (code 21) (name "Net-(U1-Pad15)")
      (node (ref U1) (pin 15)))
    (net (code 22) (name "Net-(U1-Pad16)")
      (node (ref U1) (pin 16)))
    (net (code 23) (name "Net-(R1-Pad2)")
      (node (ref R1) (pin 2))
      (node (ref U1) (pin 4)))
    (net (code 24) (name "Net-(D1-Pad7)")
      (node (ref U2) (pin 14))
      (node (ref D1) (pin 7)))
    (net (code 25) (name "Net-(U2-Pad24)")
      (node (ref U2) (pin 24)))
    (net (code 26) (name "Net-(D1-Pad4)")
      (node (ref U2) (pin 23))
      (node (ref D1) (pin 4)))
    (net (code 27) (name "Net-(D1-Pad2)")
      (node (ref D1) (pin 2))
      (node (ref U2) (pin 15)))
    (net (code 28) (name "Net-(D1-Pad6)")
      (node (ref U2) (pin 16))
      (node (ref D1) (pin 6)))
    (net (code 29) (name "Net-(D1-Pad1)")
      (node (ref D1) (pin 1))
      (node (ref U2) (pin 17)))
    (net (code 30) (name "Net-(D1-Pad3)")
      (node (ref U2) (pin 21))
      (node (ref D1) (pin 3)))
    (net (code 31) (name "Net-(D1-Pad8)")
      (node (ref D1) (pin 8))
      (node (ref U2) (pin 22)))
    (net (code 32) (name "Net-(D1-Pad11)")
      (node (ref D1) (pin 11))
      (node (ref U2) (pin 6)))
    (net (code 33) (name "Net-(D1-Pad12)")
      (node (ref D1) (pin 12))
      (node (ref U2) (pin 7)))
    (net (code 34) (name "Net-(D1-Pad10)")
      (node (ref D1) (pin 10))
      (node (ref U2) (pin 11)))
    (net (code 35) (name "Net-(D1-Pad5)")
      (node (ref D1) (pin 5))
      (node (ref U2) (pin 20)))
    (net (code 36) (name "Net-(D1-Pad9)")
      (node (ref U2) (pin 2))
      (node (ref D1) (pin 9)))
    (net (code 37) (name "Net-(D1-Pad13)")
      (node (ref D1) (pin 13))
      (node (ref U2) (pin 3)))
    (net (code 38) (name "Net-(D1-Pad14)")
      (node (ref U2) (pin 10))
      (node (ref D1) (pin 14)))
    (net (code 39) (name "Net-(D1-Pad15)")
      (node (ref U2) (pin 5))
      (node (ref D1) (pin 15)))
    (net (code 40) (name "Net-(D1-Pad16)")
      (node (ref D1) (pin 16))
      (node (ref U2) (pin 8)))))