EESchema Schematic File Version 4
EELAYER 30 0
EELAYER END
$Descr A4 11693 8268
encoding utf-8
Sheet 1 1
Title "Ledsticker"
Date "2020-05-31"
Rev "v01"
Comp ""
Comment1 ""
Comment2 "https://creativecommons.org/licenses/by-sa/4.0/"
Comment3 "License: CC BY-SA 4.0"
Comment4 "Author: Nícolas F. R. A. Prado"
$EndDescr
$Comp
L Interface_USB:MCP2210x-SO U1
U 1 1 5EC2FA8E
P 3750 4050
F 0 "U1" H 3400 3250 50  0000 C CNN
F 1 "MCP2210x-SO" H 4100 3250 50  0000 C CNN
F 2 "Package_SO:SOIC-20W_7.5x12.8mm_P1.27mm" H 3750 5150 50  0001 C CNN
F 3 "https://ww1.microchip.com/downloads/en/DeviceDoc/22288A.pdf" H 3650 4850 50  0001 C CNN
	1    3750 4050
	1    0    0    -1  
$EndComp
$Comp
L Driver_LED:MAX7219 U2
U 1 1 5EC30E97
P 6250 3400
F 0 "U2" H 6000 4350 50  0000 C CNN
F 1 "MAX7219" H 6500 4350 50  0000 C CNN
F 2 "Package_DIP:DIP-24_W7.62mm_Socket" H 6200 3450 50  0001 C CNN
F 3 "https://datasheets.maximintegrated.com/en/ds/MAX7219-MAX7221.pdf" H 6300 3250 50  0001 C CNN
	1    6250 3400
	1    0    0    -1  
$EndComp
$Comp
L Ledsticker:8x8_Ledmatrix D1
U 1 1 5ED43CCF
P 8750 3750
F 0 "D1" H 9428 3854 50  0000 L CNN
F 1 "8x8_Ledmatrix" H 9428 3763 50  0000 L CNN
F 2 "ledsticker:LEDMATRIX8x8" H 9400 3850 50  0001 C CNN
F 3 "" H 9400 3850 50  0001 C CNN
	1    8750 3750
	1    0    0    -1  
$EndComp
Wire Wire Line
	8000 3400 6650 3400
Wire Wire Line
	6650 3500 8000 3500
Wire Wire Line
	8000 3600 6650 3600
Wire Wire Line
	6650 3700 8000 3700
Wire Wire Line
	8000 3800 6650 3800
Wire Wire Line
	6650 3900 8000 3900
Wire Wire Line
	8000 4000 6650 4000
Wire Wire Line
	6650 4100 8000 4100
Wire Wire Line
	6650 3300 8000 3300
Wire Wire Line
	8000 3300 8000 3000
Wire Wire Line
	8000 3000 8400 3000
Wire Wire Line
	6650 3200 7950 3200
Wire Wire Line
	7950 3200 7950 2950
Wire Wire Line
	7950 2950 9100 2950
Wire Wire Line
	9100 2950 9100 3000
Wire Wire Line
	6650 3100 7900 3100
Wire Wire Line
	7900 3100 7900 2900
Wire Wire Line
	7900 2900 9000 2900
Wire Wire Line
	9000 2900 9000 3000
Wire Wire Line
	6650 3000 7850 3000
Wire Wire Line
	7850 3000 7850 2850
Wire Wire Line
	7850 2850 8900 2850
Wire Wire Line
	8900 2850 8900 3000
Wire Wire Line
	6650 2900 7800 2900
Wire Wire Line
	7800 2900 7800 2800
Wire Wire Line
	7800 2800 8800 2800
Wire Wire Line
	8800 2800 8800 3000
Wire Wire Line
	8700 3000 8700 2750
Wire Wire Line
	8700 2750 7750 2750
Wire Wire Line
	7750 2750 7750 2800
Wire Wire Line
	7750 2800 6650 2800
Wire Wire Line
	6650 2700 8600 2700
Wire Wire Line
	8600 2700 8600 3000
Wire Wire Line
	8500 3000 8500 2600
Wire Wire Line
	8500 2600 6650 2600
$Comp
L power:VCC #PWR08
U 1 1 5ED4EC01
P 4550 2500
F 0 "#PWR08" H 4550 2350 50  0001 C CNN
F 1 "VCC" H 4565 2673 50  0000 C CNN
F 2 "" H 4550 2500 50  0001 C CNN
F 3 "" H 4550 2500 50  0001 C CNN
	1    4550 2500
	1    0    0    -1  
$EndComp
$Comp
L Device:C C3
U 1 1 5ED4FC86
P 5250 2800
F 0 "C3" H 5365 2846 50  0000 L CNN
F 1 "0.1uF" H 5365 2755 50  0000 L CNN
F 2 "Capacitor_THT:C_Disc_D5.1mm_W3.2mm_P5.00mm" H 5288 2650 50  0001 C CNN
F 3 "~" H 5250 2800 50  0001 C CNN
	1    5250 2800
	1    0    0    -1  
$EndComp
Wire Wire Line
	5650 2600 5850 2600
$Comp
L Device:R_US R2
U 1 1 5ED4E3A1
P 5500 2600
F 0 "R2" V 5295 2600 50  0000 C CNN
F 1 "10k" V 5386 2600 50  0000 C CNN
F 2 "Resistor_THT:R_Axial_DIN0207_L6.3mm_D2.5mm_P10.16mm_Horizontal" V 5540 2590 50  0001 C CNN
F 3 "~" H 5500 2600 50  0001 C CNN
	1    5500 2600
	0    1    1    0   
$EndComp
Wire Wire Line
	5350 2600 5250 2600
Wire Wire Line
	5250 2600 5250 2650
Connection ~ 5250 2600
$Comp
L power:GND #PWR010
U 1 1 5ED60618
P 5250 3000
F 0 "#PWR010" H 5250 2750 50  0001 C CNN
F 1 "GND" H 5255 2827 50  0000 C CNN
F 2 "" H 5250 3000 50  0001 C CNN
F 3 "" H 5250 3000 50  0001 C CNN
	1    5250 3000
	1    0    0    -1  
$EndComp
$Comp
L power:GND #PWR09
U 1 1 5ED60C05
P 4850 3000
F 0 "#PWR09" H 4850 2750 50  0001 C CNN
F 1 "GND" H 4855 2827 50  0000 C CNN
F 2 "" H 4850 3000 50  0001 C CNN
F 3 "" H 4850 3000 50  0001 C CNN
	1    4850 3000
	1    0    0    -1  
$EndComp
Wire Wire Line
	5250 2950 5250 3000
$Comp
L power:GND #PWR012
U 1 1 5ED628A0
P 6250 4450
F 0 "#PWR012" H 6250 4200 50  0001 C CNN
F 1 "GND" H 6255 4277 50  0000 C CNN
F 2 "" H 6250 4450 50  0001 C CNN
F 3 "" H 6250 4450 50  0001 C CNN
	1    6250 4450
	1    0    0    -1  
$EndComp
Wire Wire Line
	6250 4400 6250 4450
Wire Wire Line
	4550 2600 4550 2500
$Comp
L Connector:USB_B_Mini J1
U 1 1 5ED44C0D
P 2450 3650
F 0 "J1" H 2507 4117 50  0000 C CNN
F 1 "USB_B_Mini" H 2507 4026 50  0000 C CNN
F 2 "Connector_USB:USB_Mini-B_Wuerth_65100516121_Horizontal" H 2600 3600 50  0001 C CNN
F 3 "~" H 2600 3600 50  0001 C CNN
	1    2450 3650
	1    0    0    -1  
$EndComp
Wire Wire Line
	2750 3650 3250 3650
Wire Wire Line
	3250 3750 2750 3750
Wire Wire Line
	4150 3450 5550 3450
Wire Wire Line
	5550 3450 5550 4100
Wire Wire Line
	5550 4100 5850 4100
$Comp
L power:GND #PWR02
U 1 1 5ED7E0F8
P 2450 4100
F 0 "#PWR02" H 2450 3850 50  0001 C CNN
F 1 "GND" H 2455 3927 50  0000 C CNN
F 2 "" H 2450 4100 50  0001 C CNN
F 3 "" H 2450 4100 50  0001 C CNN
	1    2450 4100
	1    0    0    -1  
$EndComp
Wire Wire Line
	2450 4050 2450 4100
NoConn ~ 2750 3850
NoConn ~ 2350 4050
NoConn ~ 4150 3650
Wire Wire Line
	4150 3550 5400 3550
Wire Wire Line
	5400 3550 5400 4200
Wire Wire Line
	5400 4200 5850 4200
Wire Wire Line
	4150 4150 5300 4150
Wire Wire Line
	5300 4150 5300 4000
Wire Wire Line
	5300 4000 5850 4000
NoConn ~ 4150 3850
NoConn ~ 4150 3950
NoConn ~ 4150 4050
NoConn ~ 4150 4250
NoConn ~ 4150 4350
NoConn ~ 4150 4450
NoConn ~ 4150 4550
NoConn ~ 4150 4650
$Comp
L Device:R_US R1
U 1 1 5EDA0E47
P 3150 3150
F 0 "R1" H 3218 3196 50  0000 L CNN
F 1 "390" H 3218 3105 50  0000 L CNN
F 2 "Resistor_THT:R_Axial_DIN0207_L6.3mm_D2.5mm_P10.16mm_Horizontal" V 3190 3140 50  0001 C CNN
F 3 "~" H 3150 3150 50  0001 C CNN
	1    3150 3150
	1    0    0    -1  
$EndComp
Wire Wire Line
	3250 3450 3150 3450
Wire Wire Line
	3150 3450 3150 3300
$Comp
L power:VCC #PWR04
U 1 1 5EDA6010
P 3150 2850
F 0 "#PWR04" H 3150 2700 50  0001 C CNN
F 1 "VCC" H 3165 3023 50  0000 C CNN
F 2 "" H 3150 2850 50  0001 C CNN
F 3 "" H 3150 2850 50  0001 C CNN
	1    3150 2850
	1    0    0    -1  
$EndComp
Wire Wire Line
	3150 3000 3150 2850
$Comp
L Device:CP1 C2
U 1 1 5ED4F670
P 4850 2800
F 0 "C2" H 4965 2846 50  0000 L CNN
F 1 "10uF" H 4965 2755 50  0000 L CNN
F 2 "Capacitor_THT:CP_Radial_D5.0mm_P2.50mm" H 4850 2800 50  0001 C CNN
F 3 "~" H 4850 2800 50  0001 C CNN
	1    4850 2800
	1    0    0    -1  
$EndComp
Wire Wire Line
	4850 2950 4850 3000
Wire Wire Line
	4550 2600 4850 2600
Wire Wire Line
	4850 2650 4850 2600
Connection ~ 4850 2600
Wire Wire Line
	4850 2600 5250 2600
NoConn ~ 6650 4200
$Comp
L power:GND #PWR06
U 1 1 5ED5B07D
P 3750 4850
F 0 "#PWR06" H 3750 4600 50  0001 C CNN
F 1 "GND" H 3755 4677 50  0000 C CNN
F 2 "" H 3750 4850 50  0001 C CNN
F 3 "" H 3750 4850 50  0001 C CNN
	1    3750 4850
	1    0    0    -1  
$EndComp
$Comp
L power:VCC #PWR03
U 1 1 5ED5F157
P 2850 3400
F 0 "#PWR03" H 2850 3250 50  0001 C CNN
F 1 "VCC" H 2865 3573 50  0000 C CNN
F 2 "" H 2850 3400 50  0001 C CNN
F 3 "" H 2850 3400 50  0001 C CNN
	1    2850 3400
	1    0    0    -1  
$EndComp
Wire Wire Line
	2750 3450 2850 3450
Wire Wire Line
	2850 3450 2850 3400
$Comp
L Device:C C1
U 1 1 5ED66E75
P 4050 2800
F 0 "C1" H 4165 2846 50  0000 L CNN
F 1 "0.47uF" H 4165 2755 50  0000 L CNN
F 2 "Capacitor_THT:C_Disc_D5.1mm_W3.2mm_P5.00mm" H 4088 2650 50  0001 C CNN
F 3 "~" H 4050 2800 50  0001 C CNN
	1    4050 2800
	1    0    0    -1  
$EndComp
$Comp
L power:GND #PWR07
U 1 1 5ED677B1
P 4050 3050
F 0 "#PWR07" H 4050 2800 50  0001 C CNN
F 1 "GND" H 4055 2877 50  0000 C CNN
F 2 "" H 4050 3050 50  0001 C CNN
F 3 "" H 4050 3050 50  0001 C CNN
	1    4050 3050
	1    0    0    -1  
$EndComp
Wire Wire Line
	4050 2950 4050 3050
Wire Wire Line
	3750 3250 3750 2600
Wire Wire Line
	3750 2600 4050 2600
Wire Wire Line
	4050 2600 4050 2650
$Comp
L power:VCC #PWR05
U 1 1 5ED72C6C
P 3650 3200
F 0 "#PWR05" H 3650 3050 50  0001 C CNN
F 1 "VCC" H 3665 3373 50  0000 C CNN
F 2 "" H 3650 3200 50  0001 C CNN
F 3 "" H 3650 3200 50  0001 C CNN
	1    3650 3200
	1    0    0    -1  
$EndComp
Wire Wire Line
	3650 3250 3650 3200
Text Notes 3350 2450 0    50   ~ 0
Between 0.22uF and 0.47uF
$Comp
L power:VCC #PWR011
U 1 1 5ED7C62A
P 6250 2350
F 0 "#PWR011" H 6250 2200 50  0001 C CNN
F 1 "VCC" H 6265 2523 50  0000 C CNN
F 2 "" H 6250 2350 50  0001 C CNN
F 3 "" H 6250 2350 50  0001 C CNN
	1    6250 2350
	1    0    0    -1  
$EndComp
Wire Wire Line
	6250 2400 6250 2350
$Comp
L Device:Crystal Y1
U 1 1 5ED77FDB
P 2800 4950
F 0 "Y1" H 2800 5218 50  0000 C CNN
F 1 "12MHz" H 2800 5127 50  0000 C CNN
F 2 "Crystal:Crystal_HC49-U_Vertical" H 2800 4950 50  0001 C CNN
F 3 "~" H 2800 4950 50  0001 C CNN
	1    2800 4950
	1    0    0    -1  
$EndComp
Wire Wire Line
	3250 4650 3100 4650
Wire Wire Line
	3100 4650 3100 4950
Wire Wire Line
	3100 4950 2950 4950
Wire Wire Line
	2650 4950 2550 4950
Wire Wire Line
	2550 4950 2550 4550
Wire Wire Line
	2550 4550 3250 4550
$EndSCHEMATC
