%TF.GenerationSoftware,KiCad,Pcbnew,5.1.7*%
%TF.CreationDate,2020-10-24T12:31:30-03:00*%
%TF.ProjectId,ledsticker,6c656473-7469-4636-9b65-722e6b696361,v01*%
%TF.SameCoordinates,Original*%
%TF.FileFunction,Copper,L1,Top*%
%TF.FilePolarity,Positive*%
%FSLAX46Y46*%
G04 Gerber Fmt 4.6, Leading zero omitted, Abs format (unit mm)*
G04 Created by KiCad (PCBNEW 5.1.7) date 2020-10-24 12:31:30*
%MOMM*%
%LPD*%
G01*
G04 APERTURE LIST*
%TA.AperFunction,ComponentPad*%
%ADD10C,1.524000*%
%TD*%
%TA.AperFunction,ComponentPad*%
%ADD11C,1.600000*%
%TD*%
%TA.AperFunction,ComponentPad*%
%ADD12R,1.600000X1.600000*%
%TD*%
%TA.AperFunction,SMDPad,CuDef*%
%ADD13R,2.000000X2.500000*%
%TD*%
%TA.AperFunction,SMDPad,CuDef*%
%ADD14R,0.500000X2.500000*%
%TD*%
%TA.AperFunction,ComponentPad*%
%ADD15O,1.600000X1.600000*%
%TD*%
%TA.AperFunction,ComponentPad*%
%ADD16C,1.500000*%
%TD*%
%TA.AperFunction,ViaPad*%
%ADD17C,0.762000*%
%TD*%
%TA.AperFunction,Conductor*%
%ADD18C,0.254000*%
%TD*%
%TA.AperFunction,Conductor*%
%ADD19C,0.508000*%
%TD*%
%TA.AperFunction,Conductor*%
%ADD20C,0.100000*%
%TD*%
G04 APERTURE END LIST*
D10*
%TO.P,D1,1*%
%TO.N,Net-(D1-Pad1)*%
X85090000Y-103445000D03*
%TO.P,D1,2*%
%TO.N,Net-(D1-Pad2)*%
X87630000Y-103445000D03*
%TO.P,D1,10*%
%TO.N,Net-(D1-Pad10)*%
X90170000Y-103445000D03*
%TO.P,D1,9*%
%TO.N,Net-(D1-Pad9)*%
X102870000Y-103445000D03*
%TO.P,D1,5*%
%TO.N,Net-(D1-Pad5)*%
X100330000Y-103445000D03*
%TO.P,D1,3*%
%TO.N,Net-(D1-Pad3)*%
X97790000Y-103445000D03*
%TO.P,D1,11*%
%TO.N,Net-(D1-Pad11)*%
X102870000Y-127695000D03*
%TO.P,D1,13*%
%TO.N,Net-(D1-Pad13)*%
X85090000Y-127695000D03*
%TO.P,D1,15*%
%TO.N,Net-(D1-Pad15)*%
X87630000Y-127695000D03*
%TO.P,D1,7*%
%TO.N,Net-(D1-Pad7)*%
X90170000Y-127695000D03*
%TO.P,D1,14*%
%TO.N,Net-(D1-Pad14)*%
X100330000Y-127695000D03*
%TO.P,D1,4*%
%TO.N,Net-(D1-Pad4)*%
X97790000Y-127695000D03*
%TO.P,D1,8*%
%TO.N,Net-(D1-Pad8)*%
X92710000Y-103445000D03*
%TO.P,D1,6*%
%TO.N,Net-(D1-Pad6)*%
X92710000Y-127695000D03*
%TO.P,D1,12*%
%TO.N,Net-(D1-Pad12)*%
X95250000Y-103445000D03*
%TO.P,D1,16*%
%TO.N,Net-(D1-Pad16)*%
X95250000Y-127695000D03*
%TD*%
%TO.P,U1,20*%
%TO.N,GND*%
%TA.AperFunction,SMDPad,CuDef*%
G36*
G01*
X145865000Y-118895000D02*
X145865000Y-118595000D01*
G75*
G02*
X146015000Y-118445000I150000J0D01*
G01*
X147765000Y-118445000D01*
G75*
G02*
X147915000Y-118595000I0J-150000D01*
G01*
X147915000Y-118895000D01*
G75*
G02*
X147765000Y-119045000I-150000J0D01*
G01*
X146015000Y-119045000D01*
G75*
G02*
X145865000Y-118895000I0J150000D01*
G01*
G37*
%TD.AperFunction*%
%TO.P,U1,19*%
%TO.N,Net-(J1-Pad3)*%
%TA.AperFunction,SMDPad,CuDef*%
G36*
G01*
X145865000Y-120165000D02*
X145865000Y-119865000D01*
G75*
G02*
X146015000Y-119715000I150000J0D01*
G01*
X147765000Y-119715000D01*
G75*
G02*
X147915000Y-119865000I0J-150000D01*
G01*
X147915000Y-120165000D01*
G75*
G02*
X147765000Y-120315000I-150000J0D01*
G01*
X146015000Y-120315000D01*
G75*
G02*
X145865000Y-120165000I0J150000D01*
G01*
G37*
%TD.AperFunction*%
%TO.P,U1,18*%
%TO.N,Net-(J1-Pad2)*%
%TA.AperFunction,SMDPad,CuDef*%
G36*
G01*
X145865000Y-121435000D02*
X145865000Y-121135000D01*
G75*
G02*
X146015000Y-120985000I150000J0D01*
G01*
X147765000Y-120985000D01*
G75*
G02*
X147915000Y-121135000I0J-150000D01*
G01*
X147915000Y-121435000D01*
G75*
G02*
X147765000Y-121585000I-150000J0D01*
G01*
X146015000Y-121585000D01*
G75*
G02*
X145865000Y-121435000I0J150000D01*
G01*
G37*
%TD.AperFunction*%
%TO.P,U1,17*%
%TO.N,Net-(C1-Pad1)*%
%TA.AperFunction,SMDPad,CuDef*%
G36*
G01*
X145865000Y-122705000D02*
X145865000Y-122405000D01*
G75*
G02*
X146015000Y-122255000I150000J0D01*
G01*
X147765000Y-122255000D01*
G75*
G02*
X147915000Y-122405000I0J-150000D01*
G01*
X147915000Y-122705000D01*
G75*
G02*
X147765000Y-122855000I-150000J0D01*
G01*
X146015000Y-122855000D01*
G75*
G02*
X145865000Y-122705000I0J150000D01*
G01*
G37*
%TD.AperFunction*%
%TO.P,U1,16*%
%TO.N,Net-(U1-Pad16)*%
%TA.AperFunction,SMDPad,CuDef*%
G36*
G01*
X145865000Y-123975000D02*
X145865000Y-123675000D01*
G75*
G02*
X146015000Y-123525000I150000J0D01*
G01*
X147765000Y-123525000D01*
G75*
G02*
X147915000Y-123675000I0J-150000D01*
G01*
X147915000Y-123975000D01*
G75*
G02*
X147765000Y-124125000I-150000J0D01*
G01*
X146015000Y-124125000D01*
G75*
G02*
X145865000Y-123975000I0J150000D01*
G01*
G37*
%TD.AperFunction*%
%TO.P,U1,15*%
%TO.N,Net-(U1-Pad15)*%
%TA.AperFunction,SMDPad,CuDef*%
G36*
G01*
X145865000Y-125245000D02*
X145865000Y-124945000D01*
G75*
G02*
X146015000Y-124795000I150000J0D01*
G01*
X147765000Y-124795000D01*
G75*
G02*
X147915000Y-124945000I0J-150000D01*
G01*
X147915000Y-125245000D01*
G75*
G02*
X147765000Y-125395000I-150000J0D01*
G01*
X146015000Y-125395000D01*
G75*
G02*
X145865000Y-125245000I0J150000D01*
G01*
G37*
%TD.AperFunction*%
%TO.P,U1,14*%
%TO.N,Net-(U1-Pad14)*%
%TA.AperFunction,SMDPad,CuDef*%
G36*
G01*
X145865000Y-126515000D02*
X145865000Y-126215000D01*
G75*
G02*
X146015000Y-126065000I150000J0D01*
G01*
X147765000Y-126065000D01*
G75*
G02*
X147915000Y-126215000I0J-150000D01*
G01*
X147915000Y-126515000D01*
G75*
G02*
X147765000Y-126665000I-150000J0D01*
G01*
X146015000Y-126665000D01*
G75*
G02*
X145865000Y-126515000I0J150000D01*
G01*
G37*
%TD.AperFunction*%
%TO.P,U1,13*%
%TO.N,Net-(U1-Pad13)*%
%TA.AperFunction,SMDPad,CuDef*%
G36*
G01*
X145865000Y-127785000D02*
X145865000Y-127485000D01*
G75*
G02*
X146015000Y-127335000I150000J0D01*
G01*
X147765000Y-127335000D01*
G75*
G02*
X147915000Y-127485000I0J-150000D01*
G01*
X147915000Y-127785000D01*
G75*
G02*
X147765000Y-127935000I-150000J0D01*
G01*
X146015000Y-127935000D01*
G75*
G02*
X145865000Y-127785000I0J150000D01*
G01*
G37*
%TD.AperFunction*%
%TO.P,U1,12*%
%TO.N,Net-(U1-Pad12)*%
%TA.AperFunction,SMDPad,CuDef*%
G36*
G01*
X145865000Y-129055000D02*
X145865000Y-128755000D01*
G75*
G02*
X146015000Y-128605000I150000J0D01*
G01*
X147765000Y-128605000D01*
G75*
G02*
X147915000Y-128755000I0J-150000D01*
G01*
X147915000Y-129055000D01*
G75*
G02*
X147765000Y-129205000I-150000J0D01*
G01*
X146015000Y-129205000D01*
G75*
G02*
X145865000Y-129055000I0J150000D01*
G01*
G37*
%TD.AperFunction*%
%TO.P,U1,11*%
%TO.N,Net-(U1-Pad11)*%
%TA.AperFunction,SMDPad,CuDef*%
G36*
G01*
X145865000Y-130325000D02*
X145865000Y-130025000D01*
G75*
G02*
X146015000Y-129875000I150000J0D01*
G01*
X147765000Y-129875000D01*
G75*
G02*
X147915000Y-130025000I0J-150000D01*
G01*
X147915000Y-130325000D01*
G75*
G02*
X147765000Y-130475000I-150000J0D01*
G01*
X146015000Y-130475000D01*
G75*
G02*
X145865000Y-130325000I0J150000D01*
G01*
G37*
%TD.AperFunction*%
%TO.P,U1,10*%
%TO.N,Net-(U1-Pad10)*%
%TA.AperFunction,SMDPad,CuDef*%
G36*
G01*
X136565000Y-130325000D02*
X136565000Y-130025000D01*
G75*
G02*
X136715000Y-129875000I150000J0D01*
G01*
X138465000Y-129875000D01*
G75*
G02*
X138615000Y-130025000I0J-150000D01*
G01*
X138615000Y-130325000D01*
G75*
G02*
X138465000Y-130475000I-150000J0D01*
G01*
X136715000Y-130475000D01*
G75*
G02*
X136565000Y-130325000I0J150000D01*
G01*
G37*
%TD.AperFunction*%
%TO.P,U1,9*%
%TO.N,Net-(U1-Pad9)*%
%TA.AperFunction,SMDPad,CuDef*%
G36*
G01*
X136565000Y-129055000D02*
X136565000Y-128755000D01*
G75*
G02*
X136715000Y-128605000I150000J0D01*
G01*
X138465000Y-128605000D01*
G75*
G02*
X138615000Y-128755000I0J-150000D01*
G01*
X138615000Y-129055000D01*
G75*
G02*
X138465000Y-129205000I-150000J0D01*
G01*
X136715000Y-129205000D01*
G75*
G02*
X136565000Y-129055000I0J150000D01*
G01*
G37*
%TD.AperFunction*%
%TO.P,U1,8*%
%TO.N,Net-(U1-Pad8)*%
%TA.AperFunction,SMDPad,CuDef*%
G36*
G01*
X136565000Y-127785000D02*
X136565000Y-127485000D01*
G75*
G02*
X136715000Y-127335000I150000J0D01*
G01*
X138465000Y-127335000D01*
G75*
G02*
X138615000Y-127485000I0J-150000D01*
G01*
X138615000Y-127785000D01*
G75*
G02*
X138465000Y-127935000I-150000J0D01*
G01*
X136715000Y-127935000D01*
G75*
G02*
X136565000Y-127785000I0J150000D01*
G01*
G37*
%TD.AperFunction*%
%TO.P,U1,7*%
%TO.N,Net-(U1-Pad7)*%
%TA.AperFunction,SMDPad,CuDef*%
G36*
G01*
X136565000Y-126515000D02*
X136565000Y-126215000D01*
G75*
G02*
X136715000Y-126065000I150000J0D01*
G01*
X138465000Y-126065000D01*
G75*
G02*
X138615000Y-126215000I0J-150000D01*
G01*
X138615000Y-126515000D01*
G75*
G02*
X138465000Y-126665000I-150000J0D01*
G01*
X136715000Y-126665000D01*
G75*
G02*
X136565000Y-126515000I0J150000D01*
G01*
G37*
%TD.AperFunction*%
%TO.P,U1,6*%
%TO.N,Net-(U1-Pad6)*%
%TA.AperFunction,SMDPad,CuDef*%
G36*
G01*
X136565000Y-125245000D02*
X136565000Y-124945000D01*
G75*
G02*
X136715000Y-124795000I150000J0D01*
G01*
X138465000Y-124795000D01*
G75*
G02*
X138615000Y-124945000I0J-150000D01*
G01*
X138615000Y-125245000D01*
G75*
G02*
X138465000Y-125395000I-150000J0D01*
G01*
X136715000Y-125395000D01*
G75*
G02*
X136565000Y-125245000I0J150000D01*
G01*
G37*
%TD.AperFunction*%
%TO.P,U1,5*%
%TO.N,Net-(U1-Pad5)*%
%TA.AperFunction,SMDPad,CuDef*%
G36*
G01*
X136565000Y-123975000D02*
X136565000Y-123675000D01*
G75*
G02*
X136715000Y-123525000I150000J0D01*
G01*
X138465000Y-123525000D01*
G75*
G02*
X138615000Y-123675000I0J-150000D01*
G01*
X138615000Y-123975000D01*
G75*
G02*
X138465000Y-124125000I-150000J0D01*
G01*
X136715000Y-124125000D01*
G75*
G02*
X136565000Y-123975000I0J150000D01*
G01*
G37*
%TD.AperFunction*%
%TO.P,U1,4*%
%TO.N,Net-(R1-Pad2)*%
%TA.AperFunction,SMDPad,CuDef*%
G36*
G01*
X136565000Y-122705000D02*
X136565000Y-122405000D01*
G75*
G02*
X136715000Y-122255000I150000J0D01*
G01*
X138465000Y-122255000D01*
G75*
G02*
X138615000Y-122405000I0J-150000D01*
G01*
X138615000Y-122705000D01*
G75*
G02*
X138465000Y-122855000I-150000J0D01*
G01*
X136715000Y-122855000D01*
G75*
G02*
X136565000Y-122705000I0J150000D01*
G01*
G37*
%TD.AperFunction*%
%TO.P,U1,3*%
%TO.N,Net-(U1-Pad3)*%
%TA.AperFunction,SMDPad,CuDef*%
G36*
G01*
X136565000Y-121435000D02*
X136565000Y-121135000D01*
G75*
G02*
X136715000Y-120985000I150000J0D01*
G01*
X138465000Y-120985000D01*
G75*
G02*
X138615000Y-121135000I0J-150000D01*
G01*
X138615000Y-121435000D01*
G75*
G02*
X138465000Y-121585000I-150000J0D01*
G01*
X136715000Y-121585000D01*
G75*
G02*
X136565000Y-121435000I0J150000D01*
G01*
G37*
%TD.AperFunction*%
%TO.P,U1,2*%
%TO.N,Net-(U1-Pad2)*%
%TA.AperFunction,SMDPad,CuDef*%
G36*
G01*
X136565000Y-120165000D02*
X136565000Y-119865000D01*
G75*
G02*
X136715000Y-119715000I150000J0D01*
G01*
X138465000Y-119715000D01*
G75*
G02*
X138615000Y-119865000I0J-150000D01*
G01*
X138615000Y-120165000D01*
G75*
G02*
X138465000Y-120315000I-150000J0D01*
G01*
X136715000Y-120315000D01*
G75*
G02*
X136565000Y-120165000I0J150000D01*
G01*
G37*
%TD.AperFunction*%
%TO.P,U1,1*%
%TO.N,VCC*%
%TA.AperFunction,SMDPad,CuDef*%
G36*
G01*
X136565000Y-118895000D02*
X136565000Y-118595000D01*
G75*
G02*
X136715000Y-118445000I150000J0D01*
G01*
X138465000Y-118445000D01*
G75*
G02*
X138615000Y-118595000I0J-150000D01*
G01*
X138615000Y-118895000D01*
G75*
G02*
X138465000Y-119045000I-150000J0D01*
G01*
X136715000Y-119045000D01*
G75*
G02*
X136565000Y-118895000I0J150000D01*
G01*
G37*
%TD.AperFunction*%
%TD*%
D11*
%TO.P,C1,2*%
%TO.N,GND*%
X142320000Y-111760000D03*
%TO.P,C1,1*%
%TO.N,Net-(C1-Pad1)*%
X147320000Y-111760000D03*
%TD*%
D12*
%TO.P,C2,1*%
%TO.N,VCC*%
X129540000Y-99060000D03*
D11*
%TO.P,C2,2*%
%TO.N,GND*%
X129540000Y-96560000D03*
%TD*%
%TO.P,C3,2*%
%TO.N,GND*%
X144780000Y-106600000D03*
%TO.P,C3,1*%
%TO.N,VCC*%
X144780000Y-101600000D03*
%TD*%
D13*
%TO.P,J1,6*%
%TO.N,Net-(J1-Pad6)*%
X109900000Y-142600000D03*
X118700000Y-142600000D03*
X109900000Y-137100000D03*
X118700000Y-137100000D03*
D14*
%TO.P,J1,1*%
%TO.N,VCC*%
X112700000Y-137100000D03*
%TO.P,J1,2*%
%TO.N,Net-(J1-Pad2)*%
X113500000Y-137100000D03*
%TO.P,J1,3*%
%TO.N,Net-(J1-Pad3)*%
X114300000Y-137100000D03*
%TO.P,J1,4*%
%TO.N,Net-(J1-Pad4)*%
X115100000Y-137100000D03*
%TO.P,J1,5*%
%TO.N,GND*%
X115900000Y-137100000D03*
%TD*%
D11*
%TO.P,R1,1*%
%TO.N,VCC*%
X129540000Y-119380000D03*
D15*
%TO.P,R1,2*%
%TO.N,Net-(R1-Pad2)*%
X129540000Y-129540000D03*
%TD*%
%TO.P,R2,2*%
%TO.N,VCC*%
X137160000Y-104140000D03*
D11*
%TO.P,R2,1*%
%TO.N,Net-(R2-Pad1)*%
X137160000Y-114300000D03*
%TD*%
D15*
%TO.P,U2,24*%
%TO.N,Net-(U2-Pad24)*%
X121920000Y-101600000D03*
%TO.P,U2,12*%
%TO.N,Net-(U1-Pad8)*%
X114300000Y-129540000D03*
%TO.P,U2,23*%
%TO.N,Net-(D1-Pad4)*%
X121920000Y-104140000D03*
%TO.P,U2,11*%
%TO.N,Net-(D1-Pad10)*%
X114300000Y-127000000D03*
%TO.P,U2,22*%
%TO.N,Net-(D1-Pad8)*%
X121920000Y-106680000D03*
%TO.P,U2,10*%
%TO.N,Net-(D1-Pad14)*%
X114300000Y-124460000D03*
%TO.P,U2,21*%
%TO.N,Net-(D1-Pad3)*%
X121920000Y-109220000D03*
%TO.P,U2,9*%
%TO.N,GND*%
X114300000Y-121920000D03*
%TO.P,U2,20*%
%TO.N,Net-(D1-Pad5)*%
X121920000Y-111760000D03*
%TO.P,U2,8*%
%TO.N,Net-(D1-Pad16)*%
X114300000Y-119380000D03*
%TO.P,U2,19*%
%TO.N,VCC*%
X121920000Y-114300000D03*
%TO.P,U2,7*%
%TO.N,Net-(D1-Pad12)*%
X114300000Y-116840000D03*
%TO.P,U2,18*%
%TO.N,Net-(R2-Pad1)*%
X121920000Y-116840000D03*
%TO.P,U2,6*%
%TO.N,Net-(D1-Pad11)*%
X114300000Y-114300000D03*
%TO.P,U2,17*%
%TO.N,Net-(D1-Pad1)*%
X121920000Y-119380000D03*
%TO.P,U2,5*%
%TO.N,Net-(D1-Pad15)*%
X114300000Y-111760000D03*
%TO.P,U2,16*%
%TO.N,Net-(D1-Pad6)*%
X121920000Y-121920000D03*
%TO.P,U2,4*%
%TO.N,GND*%
X114300000Y-109220000D03*
%TO.P,U2,15*%
%TO.N,Net-(D1-Pad2)*%
X121920000Y-124460000D03*
%TO.P,U2,3*%
%TO.N,Net-(D1-Pad13)*%
X114300000Y-106680000D03*
%TO.P,U2,14*%
%TO.N,Net-(D1-Pad7)*%
X121920000Y-127000000D03*
%TO.P,U2,2*%
%TO.N,Net-(D1-Pad9)*%
X114300000Y-104140000D03*
%TO.P,U2,13*%
%TO.N,Net-(U1-Pad11)*%
X121920000Y-129540000D03*
D12*
%TO.P,U2,1*%
%TO.N,Net-(U1-Pad9)*%
X114300000Y-101600000D03*
%TD*%
D16*
%TO.P,Y1,2*%
%TO.N,Net-(U1-Pad3)*%
X129540000Y-111560000D03*
%TO.P,Y1,1*%
%TO.N,Net-(U1-Pad2)*%
X129540000Y-106680000D03*
%TD*%
D17*
%TO.N,Net-(C1-Pad1)*%
X148844000Y-122428000D03*
X148844000Y-116586000D03*
%TO.N,VCC*%
X135382000Y-118618000D03*
X112776000Y-134366000D03*
%TO.N,Net-(D1-Pad2)*%
X118110000Y-117094000D03*
%TO.N,Net-(U1-Pad11)*%
X148844000Y-130810000D03*
%TD*%
D18*
%TO.N,Net-(C1-Pad1)*%
X148717000Y-122555000D02*
X148844000Y-122428000D01*
X146890000Y-122555000D02*
X148717000Y-122555000D01*
X148844000Y-116586000D02*
X147320000Y-115062000D01*
X147320000Y-115062000D02*
X147320000Y-111760000D01*
D19*
%TO.N,VCC*%
X135509000Y-118745000D02*
X135382000Y-118618000D01*
X137590000Y-118745000D02*
X135509000Y-118745000D01*
X139700000Y-104140000D02*
X137160000Y-104140000D01*
X140716000Y-105156000D02*
X139700000Y-104140000D01*
X140716000Y-114808000D02*
X140716000Y-105156000D01*
X138938000Y-116586000D02*
X140716000Y-114808000D01*
X136398000Y-116586000D02*
X138938000Y-116586000D01*
X135382000Y-117602000D02*
X136398000Y-116586000D01*
X135382000Y-118618000D02*
X135382000Y-117602000D01*
X137160000Y-104140000D02*
X137160000Y-102362000D01*
X137922000Y-101600000D02*
X144780000Y-101600000D01*
X137160000Y-102362000D02*
X137922000Y-101600000D01*
X134620000Y-104140000D02*
X129540000Y-99060000D01*
X137160000Y-104140000D02*
X134620000Y-104140000D01*
X112700000Y-134442000D02*
X112776000Y-134366000D01*
X112700000Y-137100000D02*
X112700000Y-134442000D01*
X122547841Y-130848001D02*
X126238000Y-127157842D01*
X121292159Y-130848001D02*
X122547841Y-130848001D01*
X117220999Y-126776841D02*
X121292159Y-130848001D01*
X117220999Y-116667279D02*
X117220999Y-126776841D01*
X119588278Y-114300000D02*
X117220999Y-116667279D01*
X121920000Y-114300000D02*
X119588278Y-114300000D01*
X126238000Y-122682000D02*
X129540000Y-119380000D01*
X126238000Y-127157842D02*
X126238000Y-122682000D01*
D18*
%TO.N,Net-(D1-Pad12)*%
X114866881Y-105498999D02*
X115824000Y-106456118D01*
X97303999Y-105498999D02*
X114866881Y-105498999D01*
X95250000Y-103445000D02*
X97303999Y-105498999D01*
X115824000Y-115316000D02*
X114300000Y-116840000D01*
X115824000Y-106456118D02*
X115824000Y-115316000D01*
%TO.N,Net-(D1-Pad8)*%
X92836999Y-103993641D02*
X92836999Y-102896359D01*
%TO.N,Net-(D1-Pad14)*%
X100330000Y-127695000D02*
X102175000Y-129540000D01*
X102175000Y-129540000D02*
X103378000Y-129540000D01*
X112356999Y-120561001D02*
X115227001Y-120561001D01*
X103378000Y-129540000D02*
X112356999Y-120561001D01*
X115227001Y-120561001D02*
X115824000Y-121158000D01*
X115824000Y-122936000D02*
X114300000Y-124460000D01*
X115824000Y-121158000D02*
X115824000Y-122936000D01*
%TO.N,Net-(D1-Pad15)*%
X101092000Y-111760000D02*
X114300000Y-111760000D01*
X87630000Y-125222000D02*
X101092000Y-111760000D01*
X87630000Y-127695000D02*
X87630000Y-125222000D01*
%TO.N,Net-(D1-Pad13)*%
X85090000Y-127695000D02*
X85090000Y-125730000D01*
X104140000Y-106680000D02*
X114300000Y-106680000D01*
X85090000Y-125730000D02*
X104140000Y-106680000D01*
%TO.N,Net-(D1-Pad11)*%
X102870000Y-127695000D02*
X102870000Y-125730000D01*
X102870000Y-125730000D02*
X114300000Y-114300000D01*
%TO.N,Net-(D1-Pad3)*%
X102175009Y-99059991D02*
X122427991Y-99059991D01*
X97790000Y-103445000D02*
X102175009Y-99059991D01*
X122427991Y-99059991D02*
X124460000Y-101092000D01*
X124460000Y-106680000D02*
X121920000Y-109220000D01*
X124460000Y-101092000D02*
X124460000Y-106680000D01*
%TO.N,Net-(D1-Pad5)*%
X116840000Y-106680000D02*
X121920000Y-111760000D01*
X116840000Y-101897566D02*
X116840000Y-106680000D01*
X114510434Y-99568000D02*
X116840000Y-101897566D01*
X104207000Y-99568000D02*
X114510434Y-99568000D01*
X100330000Y-103445000D02*
X104207000Y-99568000D01*
%TO.N,Net-(D1-Pad9)*%
X102870000Y-103445000D02*
X107509000Y-103445000D01*
X108204000Y-104140000D02*
X114300000Y-104140000D01*
X107509000Y-103445000D02*
X108204000Y-104140000D01*
%TO.N,Net-(D1-Pad2)*%
X119888000Y-124460000D02*
X121920000Y-124460000D01*
X118110000Y-122682000D02*
X119888000Y-124460000D01*
X118110000Y-117094000D02*
X118110000Y-122682000D01*
%TO.N,Net-(D1-Pad1)*%
X124968010Y-100881576D02*
X124968010Y-116331990D01*
X124968010Y-116331990D02*
X121920000Y-119380000D01*
X122638416Y-98551982D02*
X124968010Y-100881576D01*
X89983018Y-98551982D02*
X122638416Y-98551982D01*
X85090000Y-103445000D02*
X89983018Y-98551982D01*
%TO.N,Net-(J1-Pad2)*%
X149860000Y-131361566D02*
X149860000Y-122174000D01*
X149860000Y-122174000D02*
X148971000Y-121285000D01*
X148633566Y-132588000D02*
X149860000Y-131361566D01*
X116586000Y-132588000D02*
X148633566Y-132588000D01*
X113500000Y-135674000D02*
X116586000Y-132588000D01*
X148971000Y-121285000D02*
X146890000Y-121285000D01*
X113500000Y-137100000D02*
X113500000Y-135674000D01*
%TO.N,Net-(J1-Pad3)*%
X114300000Y-135596000D02*
X116800000Y-133096000D01*
X114300000Y-137100000D02*
X114300000Y-135596000D01*
X148844000Y-133096000D02*
X150368000Y-131572000D01*
X116800000Y-133096000D02*
X148844000Y-133096000D01*
X150368000Y-131572000D02*
X150368000Y-120904000D01*
X149479000Y-120015000D02*
X146890000Y-120015000D01*
X150368000Y-120904000D02*
X149479000Y-120015000D01*
%TO.N,Net-(R1-Pad2)*%
X137590000Y-122555000D02*
X136271000Y-122555000D01*
X129540000Y-129540000D02*
X134620000Y-124460000D01*
X134620000Y-124460000D02*
X134620000Y-123952000D01*
X136017000Y-122555000D02*
X137590000Y-122555000D01*
X134620000Y-123952000D02*
X136017000Y-122555000D01*
%TO.N,Net-(U1-Pad2)*%
X135509000Y-120015000D02*
X137590000Y-120015000D01*
X133858000Y-105410000D02*
X133858000Y-118364000D01*
X133858000Y-118364000D02*
X135509000Y-120015000D01*
X130556000Y-103886000D02*
X132334000Y-103886000D01*
X129540000Y-104902000D02*
X130556000Y-103886000D01*
X132334000Y-103886000D02*
X133858000Y-105410000D01*
X129540000Y-106680000D02*
X129540000Y-104902000D01*
%TO.N,Net-(U1-Pad3)*%
X129540000Y-111560000D02*
X129540000Y-115824000D01*
X135001000Y-121285000D02*
X137590000Y-121285000D01*
X129540000Y-115824000D02*
X135001000Y-121285000D01*
%TO.N,Net-(U1-Pad8)*%
X137590000Y-127635000D02*
X135255000Y-127635000D01*
X114808000Y-131318000D02*
X114300000Y-130810000D01*
X114300000Y-130810000D02*
X114300000Y-129540000D01*
X114808000Y-131318000D02*
X115062000Y-131572000D01*
X135255000Y-127635000D02*
X131318000Y-131572000D01*
X115062000Y-131572000D02*
X131318000Y-131572000D01*
%TO.N,Net-(U1-Pad9)*%
X114866881Y-128181001D02*
X116332000Y-126715882D01*
X113911117Y-128181001D02*
X114866881Y-128181001D01*
X112776000Y-129316118D02*
X113911117Y-128181001D01*
X116332000Y-126715882D02*
X116332000Y-102108000D01*
X115824000Y-101600000D02*
X114300000Y-101600000D01*
X116332000Y-102108000D02*
X115824000Y-101600000D01*
X113327566Y-132080000D02*
X112776000Y-131528434D01*
X112776000Y-131528434D02*
X112776000Y-129316118D01*
X133390000Y-132080000D02*
X113327566Y-132080000D01*
X136565000Y-128905000D02*
X133390000Y-132080000D01*
X137590000Y-128905000D02*
X136565000Y-128905000D01*
%TO.N,Net-(U1-Pad11)*%
X148209000Y-130175000D02*
X148844000Y-130810000D01*
X146890000Y-130175000D02*
X148209000Y-130175000D01*
%TD*%
%TO.N,GND*%
X151740001Y-145644000D02*
X76860000Y-145644000D01*
X76860000Y-141350000D01*
X108261928Y-141350000D01*
X108261928Y-143850000D01*
X108274188Y-143974482D01*
X108310498Y-144094180D01*
X108369463Y-144204494D01*
X108448815Y-144301185D01*
X108545506Y-144380537D01*
X108655820Y-144439502D01*
X108775518Y-144475812D01*
X108900000Y-144488072D01*
X110900000Y-144488072D01*
X111024482Y-144475812D01*
X111144180Y-144439502D01*
X111254494Y-144380537D01*
X111351185Y-144301185D01*
X111430537Y-144204494D01*
X111489502Y-144094180D01*
X111525812Y-143974482D01*
X111538072Y-143850000D01*
X111538072Y-141350000D01*
X117061928Y-141350000D01*
X117061928Y-143850000D01*
X117074188Y-143974482D01*
X117110498Y-144094180D01*
X117169463Y-144204494D01*
X117248815Y-144301185D01*
X117345506Y-144380537D01*
X117455820Y-144439502D01*
X117575518Y-144475812D01*
X117700000Y-144488072D01*
X119700000Y-144488072D01*
X119824482Y-144475812D01*
X119944180Y-144439502D01*
X120054494Y-144380537D01*
X120151185Y-144301185D01*
X120230537Y-144204494D01*
X120289502Y-144094180D01*
X120325812Y-143974482D01*
X120338072Y-143850000D01*
X120338072Y-141350000D01*
X120325812Y-141225518D01*
X120289502Y-141105820D01*
X120230537Y-140995506D01*
X120151185Y-140898815D01*
X120054494Y-140819463D01*
X119944180Y-140760498D01*
X119824482Y-140724188D01*
X119700000Y-140711928D01*
X117700000Y-140711928D01*
X117575518Y-140724188D01*
X117455820Y-140760498D01*
X117345506Y-140819463D01*
X117248815Y-140898815D01*
X117169463Y-140995506D01*
X117110498Y-141105820D01*
X117074188Y-141225518D01*
X117061928Y-141350000D01*
X111538072Y-141350000D01*
X111525812Y-141225518D01*
X111489502Y-141105820D01*
X111430537Y-140995506D01*
X111351185Y-140898815D01*
X111254494Y-140819463D01*
X111144180Y-140760498D01*
X111024482Y-140724188D01*
X110900000Y-140711928D01*
X108900000Y-140711928D01*
X108775518Y-140724188D01*
X108655820Y-140760498D01*
X108545506Y-140819463D01*
X108448815Y-140898815D01*
X108369463Y-140995506D01*
X108310498Y-141105820D01*
X108274188Y-141225518D01*
X108261928Y-141350000D01*
X76860000Y-141350000D01*
X76860000Y-135850000D01*
X108261928Y-135850000D01*
X108261928Y-138350000D01*
X108274188Y-138474482D01*
X108310498Y-138594180D01*
X108369463Y-138704494D01*
X108448815Y-138801185D01*
X108545506Y-138880537D01*
X108655820Y-138939502D01*
X108775518Y-138975812D01*
X108900000Y-138988072D01*
X110900000Y-138988072D01*
X111024482Y-138975812D01*
X111144180Y-138939502D01*
X111254494Y-138880537D01*
X111351185Y-138801185D01*
X111430537Y-138704494D01*
X111489502Y-138594180D01*
X111525812Y-138474482D01*
X111538072Y-138350000D01*
X111538072Y-135850000D01*
X111525812Y-135725518D01*
X111489502Y-135605820D01*
X111430537Y-135495506D01*
X111351185Y-135398815D01*
X111254494Y-135319463D01*
X111144180Y-135260498D01*
X111024482Y-135224188D01*
X110900000Y-135211928D01*
X108900000Y-135211928D01*
X108775518Y-135224188D01*
X108655820Y-135260498D01*
X108545506Y-135319463D01*
X108448815Y-135398815D01*
X108369463Y-135495506D01*
X108310498Y-135605820D01*
X108274188Y-135725518D01*
X108261928Y-135850000D01*
X76860000Y-135850000D01*
X76860000Y-103307408D01*
X83693000Y-103307408D01*
X83693000Y-103582592D01*
X83746686Y-103852490D01*
X83851995Y-104106727D01*
X84004880Y-104335535D01*
X84199465Y-104530120D01*
X84428273Y-104683005D01*
X84682510Y-104788314D01*
X84952408Y-104842000D01*
X85227592Y-104842000D01*
X85497490Y-104788314D01*
X85751727Y-104683005D01*
X85980535Y-104530120D01*
X86175120Y-104335535D01*
X86328005Y-104106727D01*
X86360000Y-104029485D01*
X86391995Y-104106727D01*
X86544880Y-104335535D01*
X86739465Y-104530120D01*
X86968273Y-104683005D01*
X87222510Y-104788314D01*
X87492408Y-104842000D01*
X87767592Y-104842000D01*
X88037490Y-104788314D01*
X88291727Y-104683005D01*
X88520535Y-104530120D01*
X88715120Y-104335535D01*
X88868005Y-104106727D01*
X88900000Y-104029485D01*
X88931995Y-104106727D01*
X89084880Y-104335535D01*
X89279465Y-104530120D01*
X89508273Y-104683005D01*
X89762510Y-104788314D01*
X90032408Y-104842000D01*
X90307592Y-104842000D01*
X90577490Y-104788314D01*
X90831727Y-104683005D01*
X91060535Y-104530120D01*
X91255120Y-104335535D01*
X91408005Y-104106727D01*
X91440000Y-104029485D01*
X91471995Y-104106727D01*
X91624880Y-104335535D01*
X91819465Y-104530120D01*
X92048273Y-104683005D01*
X92302510Y-104788314D01*
X92572408Y-104842000D01*
X92847592Y-104842000D01*
X93117490Y-104788314D01*
X93371727Y-104683005D01*
X93600535Y-104530120D01*
X93795120Y-104335535D01*
X93948005Y-104106727D01*
X93980000Y-104029485D01*
X94011995Y-104106727D01*
X94164880Y-104335535D01*
X94359465Y-104530120D01*
X94588273Y-104683005D01*
X94842510Y-104788314D01*
X95112408Y-104842000D01*
X95387592Y-104842000D01*
X95539211Y-104811841D01*
X96738719Y-106011350D01*
X96762577Y-106040421D01*
X96878607Y-106135644D01*
X97010984Y-106206401D01*
X97154621Y-106249973D01*
X97266573Y-106260999D01*
X97266575Y-106260999D01*
X97303998Y-106264685D01*
X97341421Y-106260999D01*
X103481370Y-106260999D01*
X84577649Y-125164721D01*
X84548579Y-125188578D01*
X84524722Y-125217648D01*
X84524721Y-125217649D01*
X84453355Y-125304608D01*
X84382599Y-125436985D01*
X84339027Y-125580622D01*
X84324314Y-125730000D01*
X84328001Y-125767433D01*
X84328001Y-126523995D01*
X84199465Y-126609880D01*
X84004880Y-126804465D01*
X83851995Y-127033273D01*
X83746686Y-127287510D01*
X83693000Y-127557408D01*
X83693000Y-127832592D01*
X83746686Y-128102490D01*
X83851995Y-128356727D01*
X84004880Y-128585535D01*
X84199465Y-128780120D01*
X84428273Y-128933005D01*
X84682510Y-129038314D01*
X84952408Y-129092000D01*
X85227592Y-129092000D01*
X85497490Y-129038314D01*
X85751727Y-128933005D01*
X85980535Y-128780120D01*
X86175120Y-128585535D01*
X86328005Y-128356727D01*
X86360000Y-128279485D01*
X86391995Y-128356727D01*
X86544880Y-128585535D01*
X86739465Y-128780120D01*
X86968273Y-128933005D01*
X87222510Y-129038314D01*
X87492408Y-129092000D01*
X87767592Y-129092000D01*
X88037490Y-129038314D01*
X88291727Y-128933005D01*
X88520535Y-128780120D01*
X88715120Y-128585535D01*
X88868005Y-128356727D01*
X88900000Y-128279485D01*
X88931995Y-128356727D01*
X89084880Y-128585535D01*
X89279465Y-128780120D01*
X89508273Y-128933005D01*
X89762510Y-129038314D01*
X90032408Y-129092000D01*
X90307592Y-129092000D01*
X90577490Y-129038314D01*
X90831727Y-128933005D01*
X91060535Y-128780120D01*
X91255120Y-128585535D01*
X91408005Y-128356727D01*
X91440000Y-128279485D01*
X91471995Y-128356727D01*
X91624880Y-128585535D01*
X91819465Y-128780120D01*
X92048273Y-128933005D01*
X92302510Y-129038314D01*
X92572408Y-129092000D01*
X92847592Y-129092000D01*
X93117490Y-129038314D01*
X93371727Y-128933005D01*
X93600535Y-128780120D01*
X93795120Y-128585535D01*
X93948005Y-128356727D01*
X93980000Y-128279485D01*
X94011995Y-128356727D01*
X94164880Y-128585535D01*
X94359465Y-128780120D01*
X94588273Y-128933005D01*
X94842510Y-129038314D01*
X95112408Y-129092000D01*
X95387592Y-129092000D01*
X95657490Y-129038314D01*
X95911727Y-128933005D01*
X96140535Y-128780120D01*
X96335120Y-128585535D01*
X96488005Y-128356727D01*
X96520000Y-128279485D01*
X96551995Y-128356727D01*
X96704880Y-128585535D01*
X96899465Y-128780120D01*
X97128273Y-128933005D01*
X97382510Y-129038314D01*
X97652408Y-129092000D01*
X97927592Y-129092000D01*
X98197490Y-129038314D01*
X98451727Y-128933005D01*
X98680535Y-128780120D01*
X98875120Y-128585535D01*
X99028005Y-128356727D01*
X99060000Y-128279485D01*
X99091995Y-128356727D01*
X99244880Y-128585535D01*
X99439465Y-128780120D01*
X99668273Y-128933005D01*
X99922510Y-129038314D01*
X100192408Y-129092000D01*
X100467592Y-129092000D01*
X100619211Y-129061841D01*
X101609721Y-130052352D01*
X101633578Y-130081422D01*
X101749608Y-130176645D01*
X101881985Y-130247402D01*
X102025622Y-130290974D01*
X102137574Y-130302000D01*
X102137576Y-130302000D01*
X102174999Y-130305686D01*
X102212422Y-130302000D01*
X103340577Y-130302000D01*
X103378000Y-130305686D01*
X103415423Y-130302000D01*
X103415426Y-130302000D01*
X103527378Y-130290974D01*
X103671015Y-130247402D01*
X103803392Y-130176645D01*
X103919422Y-130081422D01*
X103943284Y-130052346D01*
X112672630Y-121323001D01*
X113002594Y-121323001D01*
X112948754Y-121436913D01*
X112908096Y-121570961D01*
X113030085Y-121793000D01*
X114173000Y-121793000D01*
X114173000Y-121773000D01*
X114427000Y-121773000D01*
X114427000Y-121793000D01*
X114447000Y-121793000D01*
X114447000Y-122047000D01*
X114427000Y-122047000D01*
X114427000Y-122067000D01*
X114173000Y-122067000D01*
X114173000Y-122047000D01*
X113030085Y-122047000D01*
X112908096Y-122269039D01*
X112948754Y-122403087D01*
X113068963Y-122657420D01*
X113236481Y-122883414D01*
X113444869Y-123072385D01*
X113630865Y-123183933D01*
X113620273Y-123188320D01*
X113385241Y-123345363D01*
X113185363Y-123545241D01*
X113028320Y-123780273D01*
X112920147Y-124041426D01*
X112865000Y-124318665D01*
X112865000Y-124601335D01*
X112920147Y-124878574D01*
X113028320Y-125139727D01*
X113185363Y-125374759D01*
X113385241Y-125574637D01*
X113617759Y-125730000D01*
X113385241Y-125885363D01*
X113185363Y-126085241D01*
X113028320Y-126320273D01*
X112920147Y-126581426D01*
X112865000Y-126858665D01*
X112865000Y-127141335D01*
X112920147Y-127418574D01*
X113028320Y-127679727D01*
X113151063Y-127863425D01*
X112263649Y-128750839D01*
X112234579Y-128774696D01*
X112210722Y-128803766D01*
X112210721Y-128803767D01*
X112139355Y-128890726D01*
X112068599Y-129023103D01*
X112025027Y-129166740D01*
X112010314Y-129316118D01*
X112014001Y-129353551D01*
X112014000Y-131491010D01*
X112010314Y-131528434D01*
X112014000Y-131565857D01*
X112014000Y-131565859D01*
X112025026Y-131677811D01*
X112068598Y-131821448D01*
X112073357Y-131830351D01*
X112139355Y-131953826D01*
X112175108Y-131997391D01*
X112234578Y-132069856D01*
X112263653Y-132093717D01*
X112762286Y-132592351D01*
X112786144Y-132621422D01*
X112902174Y-132716645D01*
X113034551Y-132787402D01*
X113178188Y-132830974D01*
X113290140Y-132842000D01*
X113290142Y-132842000D01*
X113327565Y-132845686D01*
X113364988Y-132842000D01*
X115254369Y-132842000D01*
X113792000Y-134304370D01*
X113792000Y-134265933D01*
X113752956Y-134069644D01*
X113676368Y-133884744D01*
X113565179Y-133718338D01*
X113423662Y-133576821D01*
X113257256Y-133465632D01*
X113072356Y-133389044D01*
X112876067Y-133350000D01*
X112675933Y-133350000D01*
X112479644Y-133389044D01*
X112294744Y-133465632D01*
X112128338Y-133576821D01*
X111986821Y-133718338D01*
X111875632Y-133884744D01*
X111799044Y-134069644D01*
X111760000Y-134265933D01*
X111760000Y-134466067D01*
X111799044Y-134662356D01*
X111811001Y-134691223D01*
X111811000Y-137143666D01*
X111811928Y-137153088D01*
X111811928Y-138350000D01*
X111824188Y-138474482D01*
X111860498Y-138594180D01*
X111883304Y-138636847D01*
X111783517Y-138656696D01*
X111586060Y-138738485D01*
X111408353Y-138857225D01*
X111257225Y-139008353D01*
X111138485Y-139186060D01*
X111056696Y-139383517D01*
X111015000Y-139593137D01*
X111015000Y-139806863D01*
X111056696Y-140016483D01*
X111138485Y-140213940D01*
X111257225Y-140391647D01*
X111408353Y-140542775D01*
X111586060Y-140661515D01*
X111783517Y-140743304D01*
X111993137Y-140785000D01*
X112206863Y-140785000D01*
X112416483Y-140743304D01*
X112613940Y-140661515D01*
X112791647Y-140542775D01*
X112942775Y-140391647D01*
X113061515Y-140213940D01*
X113143304Y-140016483D01*
X113185000Y-139806863D01*
X113185000Y-139593137D01*
X113143304Y-139383517D01*
X113061515Y-139186060D01*
X112942775Y-139008353D01*
X112922494Y-138988072D01*
X112950000Y-138988072D01*
X113074482Y-138975812D01*
X113100000Y-138968071D01*
X113125518Y-138975812D01*
X113250000Y-138988072D01*
X113750000Y-138988072D01*
X113874482Y-138975812D01*
X113900000Y-138968071D01*
X113925518Y-138975812D01*
X114050000Y-138988072D01*
X114550000Y-138988072D01*
X114674482Y-138975812D01*
X114700000Y-138968071D01*
X114725518Y-138975812D01*
X114850000Y-138988072D01*
X115350000Y-138988072D01*
X115474482Y-138975812D01*
X115499329Y-138968275D01*
X115519187Y-138974519D01*
X115618250Y-138985000D01*
X115772998Y-138830252D01*
X115772998Y-138892580D01*
X115657225Y-139008353D01*
X115538485Y-139186060D01*
X115456696Y-139383517D01*
X115415000Y-139593137D01*
X115415000Y-139806863D01*
X115456696Y-140016483D01*
X115538485Y-140213940D01*
X115657225Y-140391647D01*
X115808353Y-140542775D01*
X115986060Y-140661515D01*
X116183517Y-140743304D01*
X116393137Y-140785000D01*
X116606863Y-140785000D01*
X116816483Y-140743304D01*
X117013940Y-140661515D01*
X117191647Y-140542775D01*
X117342775Y-140391647D01*
X117461515Y-140213940D01*
X117543304Y-140016483D01*
X117585000Y-139806863D01*
X117585000Y-139593137D01*
X117543304Y-139383517D01*
X117461515Y-139186060D01*
X117342775Y-139008353D01*
X117191647Y-138857225D01*
X117013940Y-138738485D01*
X116816483Y-138656696D01*
X116716582Y-138636824D01*
X116741944Y-138588197D01*
X116777040Y-138468138D01*
X116788039Y-138343538D01*
X116785000Y-137385750D01*
X116626250Y-137227000D01*
X116023000Y-137227000D01*
X116023000Y-137247000D01*
X115988072Y-137247000D01*
X115988072Y-135850000D01*
X115975812Y-135725518D01*
X115939502Y-135605820D01*
X115880537Y-135495506D01*
X115801185Y-135398815D01*
X115777000Y-135378967D01*
X115777000Y-135373750D01*
X116023000Y-135373750D01*
X116023000Y-136973000D01*
X116626250Y-136973000D01*
X116785000Y-136814250D01*
X116788039Y-135856462D01*
X116787469Y-135850000D01*
X117061928Y-135850000D01*
X117061928Y-138350000D01*
X117074188Y-138474482D01*
X117110498Y-138594180D01*
X117169463Y-138704494D01*
X117248815Y-138801185D01*
X117345506Y-138880537D01*
X117455820Y-138939502D01*
X117575518Y-138975812D01*
X117700000Y-138988072D01*
X119700000Y-138988072D01*
X119824482Y-138975812D01*
X119944180Y-138939502D01*
X120054494Y-138880537D01*
X120151185Y-138801185D01*
X120230537Y-138704494D01*
X120289502Y-138594180D01*
X120325812Y-138474482D01*
X120338072Y-138350000D01*
X120338072Y-135850000D01*
X120325812Y-135725518D01*
X120289502Y-135605820D01*
X120230537Y-135495506D01*
X120151185Y-135398815D01*
X120054494Y-135319463D01*
X119944180Y-135260498D01*
X119824482Y-135224188D01*
X119700000Y-135211928D01*
X117700000Y-135211928D01*
X117575518Y-135224188D01*
X117455820Y-135260498D01*
X117345506Y-135319463D01*
X117248815Y-135398815D01*
X117169463Y-135495506D01*
X117110498Y-135605820D01*
X117074188Y-135725518D01*
X117061928Y-135850000D01*
X116787469Y-135850000D01*
X116777040Y-135731862D01*
X116741944Y-135611803D01*
X116684100Y-135500897D01*
X116605731Y-135403407D01*
X116509848Y-135323080D01*
X116400137Y-135263001D01*
X116280813Y-135225481D01*
X116181750Y-135215000D01*
X116023000Y-135373750D01*
X115777000Y-135373750D01*
X115688440Y-135285190D01*
X117115631Y-133858000D01*
X148806577Y-133858000D01*
X148844000Y-133861686D01*
X148881423Y-133858000D01*
X148881426Y-133858000D01*
X148993378Y-133846974D01*
X149137015Y-133803402D01*
X149269392Y-133732645D01*
X149385422Y-133637422D01*
X149409284Y-133608346D01*
X150880353Y-132137278D01*
X150909422Y-132113422D01*
X151004645Y-131997392D01*
X151075402Y-131865015D01*
X151118974Y-131721378D01*
X151130000Y-131609426D01*
X151130000Y-131609424D01*
X151133686Y-131572001D01*
X151130000Y-131534578D01*
X151130000Y-120941423D01*
X151133686Y-120904000D01*
X151130000Y-120866574D01*
X151118974Y-120754622D01*
X151075402Y-120610985D01*
X151008062Y-120485000D01*
X151004645Y-120478607D01*
X150933279Y-120391648D01*
X150909422Y-120362578D01*
X150880351Y-120338721D01*
X150044284Y-119502653D01*
X150020422Y-119473578D01*
X149904392Y-119378355D01*
X149772015Y-119307598D01*
X149628378Y-119264026D01*
X149516426Y-119253000D01*
X149516423Y-119253000D01*
X149479000Y-119249314D01*
X149441577Y-119253000D01*
X148515477Y-119253000D01*
X148540812Y-119169482D01*
X148553072Y-119045000D01*
X148550000Y-119030750D01*
X148391250Y-118872000D01*
X147017000Y-118872000D01*
X147017000Y-118892000D01*
X146763000Y-118892000D01*
X146763000Y-118872000D01*
X145388750Y-118872000D01*
X145230000Y-119030750D01*
X145226928Y-119045000D01*
X145239188Y-119169482D01*
X145275498Y-119289180D01*
X145334463Y-119399494D01*
X145358730Y-119429064D01*
X145286916Y-119563418D01*
X145242071Y-119711255D01*
X145226928Y-119865000D01*
X145226928Y-120165000D01*
X145242071Y-120318745D01*
X145286916Y-120466582D01*
X145359742Y-120602829D01*
X145398454Y-120650000D01*
X145359742Y-120697171D01*
X145286916Y-120833418D01*
X145242071Y-120981255D01*
X145226928Y-121135000D01*
X145226928Y-121435000D01*
X145242071Y-121588745D01*
X145286916Y-121736582D01*
X145359742Y-121872829D01*
X145398454Y-121920000D01*
X145359742Y-121967171D01*
X145286916Y-122103418D01*
X145242071Y-122251255D01*
X145226928Y-122405000D01*
X145226928Y-122705000D01*
X145242071Y-122858745D01*
X145286916Y-123006582D01*
X145359742Y-123142829D01*
X145398454Y-123190000D01*
X145359742Y-123237171D01*
X145286916Y-123373418D01*
X145242071Y-123521255D01*
X145226928Y-123675000D01*
X145226928Y-123975000D01*
X145242071Y-124128745D01*
X145286916Y-124276582D01*
X145359742Y-124412829D01*
X145398454Y-124460000D01*
X145359742Y-124507171D01*
X145286916Y-124643418D01*
X145242071Y-124791255D01*
X145226928Y-124945000D01*
X145226928Y-125245000D01*
X145242071Y-125398745D01*
X145286916Y-125546582D01*
X145359742Y-125682829D01*
X145398454Y-125730000D01*
X145359742Y-125777171D01*
X145286916Y-125913418D01*
X145242071Y-126061255D01*
X145226928Y-126215000D01*
X145226928Y-126515000D01*
X145242071Y-126668745D01*
X145286916Y-126816582D01*
X145359742Y-126952829D01*
X145398454Y-127000000D01*
X145359742Y-127047171D01*
X145286916Y-127183418D01*
X145242071Y-127331255D01*
X145226928Y-127485000D01*
X145226928Y-127785000D01*
X145242071Y-127938745D01*
X145286916Y-128086582D01*
X145359742Y-128222829D01*
X145398454Y-128270000D01*
X145359742Y-128317171D01*
X145286916Y-128453418D01*
X145242071Y-128601255D01*
X145226928Y-128755000D01*
X145226928Y-129055000D01*
X145242071Y-129208745D01*
X145286916Y-129356582D01*
X145359742Y-129492829D01*
X145398454Y-129540000D01*
X145359742Y-129587171D01*
X145286916Y-129723418D01*
X145242071Y-129871255D01*
X145226928Y-130025000D01*
X145226928Y-130325000D01*
X145242071Y-130478745D01*
X145286916Y-130626582D01*
X145359742Y-130762829D01*
X145457749Y-130882251D01*
X145577171Y-130980258D01*
X145713418Y-131053084D01*
X145861255Y-131097929D01*
X146015000Y-131113072D01*
X147765000Y-131113072D01*
X147866393Y-131103085D01*
X147867044Y-131106356D01*
X147943632Y-131291256D01*
X148054821Y-131457662D01*
X148196338Y-131599179D01*
X148362744Y-131710368D01*
X148412824Y-131731112D01*
X148317936Y-131826000D01*
X134721630Y-131826000D01*
X135971586Y-130576045D01*
X135986916Y-130626582D01*
X136059742Y-130762829D01*
X136157749Y-130882251D01*
X136277171Y-130980258D01*
X136413418Y-131053084D01*
X136561255Y-131097929D01*
X136715000Y-131113072D01*
X138465000Y-131113072D01*
X138618745Y-131097929D01*
X138766582Y-131053084D01*
X138902829Y-130980258D01*
X139022251Y-130882251D01*
X139120258Y-130762829D01*
X139193084Y-130626582D01*
X139237929Y-130478745D01*
X139253072Y-130325000D01*
X139253072Y-130025000D01*
X139237929Y-129871255D01*
X139193084Y-129723418D01*
X139120258Y-129587171D01*
X139081546Y-129540000D01*
X139120258Y-129492829D01*
X139193084Y-129356582D01*
X139237929Y-129208745D01*
X139253072Y-129055000D01*
X139253072Y-128755000D01*
X139237929Y-128601255D01*
X139193084Y-128453418D01*
X139120258Y-128317171D01*
X139081546Y-128270000D01*
X139120258Y-128222829D01*
X139193084Y-128086582D01*
X139237929Y-127938745D01*
X139253072Y-127785000D01*
X139253072Y-127485000D01*
X139237929Y-127331255D01*
X139193084Y-127183418D01*
X139120258Y-127047171D01*
X139081546Y-127000000D01*
X139120258Y-126952829D01*
X139193084Y-126816582D01*
X139237929Y-126668745D01*
X139253072Y-126515000D01*
X139253072Y-126215000D01*
X139237929Y-126061255D01*
X139193084Y-125913418D01*
X139120258Y-125777171D01*
X139081546Y-125730000D01*
X139120258Y-125682829D01*
X139193084Y-125546582D01*
X139237929Y-125398745D01*
X139253072Y-125245000D01*
X139253072Y-124945000D01*
X139237929Y-124791255D01*
X139193084Y-124643418D01*
X139120258Y-124507171D01*
X139081546Y-124460000D01*
X139120258Y-124412829D01*
X139193084Y-124276582D01*
X139237929Y-124128745D01*
X139253072Y-123975000D01*
X139253072Y-123675000D01*
X139237929Y-123521255D01*
X139193084Y-123373418D01*
X139120258Y-123237171D01*
X139081546Y-123190000D01*
X139120258Y-123142829D01*
X139193084Y-123006582D01*
X139237929Y-122858745D01*
X139253072Y-122705000D01*
X139253072Y-122405000D01*
X139237929Y-122251255D01*
X139193084Y-122103418D01*
X139120258Y-121967171D01*
X139081546Y-121920000D01*
X139120258Y-121872829D01*
X139193084Y-121736582D01*
X139237929Y-121588745D01*
X139253072Y-121435000D01*
X139253072Y-121135000D01*
X139237929Y-120981255D01*
X139193084Y-120833418D01*
X139120258Y-120697171D01*
X139081546Y-120650000D01*
X139120258Y-120602829D01*
X139193084Y-120466582D01*
X139237929Y-120318745D01*
X139253072Y-120165000D01*
X139253072Y-119865000D01*
X139237929Y-119711255D01*
X139193084Y-119563418D01*
X139120258Y-119427171D01*
X139081546Y-119380000D01*
X139120258Y-119332829D01*
X139193084Y-119196582D01*
X139237929Y-119048745D01*
X139253072Y-118895000D01*
X139253072Y-118595000D01*
X139238298Y-118445000D01*
X145226928Y-118445000D01*
X145230000Y-118459250D01*
X145388750Y-118618000D01*
X146763000Y-118618000D01*
X146763000Y-117968750D01*
X147017000Y-117968750D01*
X147017000Y-118618000D01*
X148391250Y-118618000D01*
X148550000Y-118459250D01*
X148553072Y-118445000D01*
X148540812Y-118320518D01*
X148504502Y-118200820D01*
X148445537Y-118090506D01*
X148366185Y-117993815D01*
X148269494Y-117914463D01*
X148159180Y-117855498D01*
X148039482Y-117819188D01*
X147915000Y-117806928D01*
X147175750Y-117810000D01*
X147017000Y-117968750D01*
X146763000Y-117968750D01*
X146604250Y-117810000D01*
X145865000Y-117806928D01*
X145740518Y-117819188D01*
X145620820Y-117855498D01*
X145510506Y-117914463D01*
X145413815Y-117993815D01*
X145334463Y-118090506D01*
X145275498Y-118200820D01*
X145239188Y-118320518D01*
X145226928Y-118445000D01*
X139238298Y-118445000D01*
X139237929Y-118441255D01*
X139193084Y-118293418D01*
X139120258Y-118157171D01*
X139022251Y-118037749D01*
X138902829Y-117939742D01*
X138766582Y-117866916D01*
X138618745Y-117822071D01*
X138465000Y-117806928D01*
X136715000Y-117806928D01*
X136561255Y-117822071D01*
X136449404Y-117856000D01*
X136385235Y-117856000D01*
X136766236Y-117475000D01*
X138894340Y-117475000D01*
X138938000Y-117479300D01*
X138981660Y-117475000D01*
X138981667Y-117475000D01*
X139112274Y-117462136D01*
X139279851Y-117411303D01*
X139434291Y-117328753D01*
X139569659Y-117217659D01*
X139597499Y-117183736D01*
X141313743Y-115467493D01*
X141347659Y-115439659D01*
X141458753Y-115304291D01*
X141541303Y-115149851D01*
X141592136Y-114982274D01*
X141605000Y-114851667D01*
X141605000Y-114851660D01*
X141609300Y-114808000D01*
X141605000Y-114764340D01*
X141605000Y-113009217D01*
X141833996Y-113117571D01*
X142108184Y-113186300D01*
X142390512Y-113200217D01*
X142670130Y-113158787D01*
X142936292Y-113063603D01*
X143061514Y-112996671D01*
X143133097Y-112752702D01*
X142320000Y-111939605D01*
X142305858Y-111953748D01*
X142126253Y-111774143D01*
X142140395Y-111760000D01*
X142499605Y-111760000D01*
X143312702Y-112573097D01*
X143556671Y-112501514D01*
X143677571Y-112246004D01*
X143746300Y-111971816D01*
X143760217Y-111689488D01*
X143749724Y-111618665D01*
X145885000Y-111618665D01*
X145885000Y-111901335D01*
X145940147Y-112178574D01*
X146048320Y-112439727D01*
X146205363Y-112674759D01*
X146405241Y-112874637D01*
X146558001Y-112976707D01*
X146558000Y-115024577D01*
X146554314Y-115062000D01*
X146558000Y-115099423D01*
X146558000Y-115099425D01*
X146569026Y-115211377D01*
X146612598Y-115355014D01*
X146639316Y-115405000D01*
X146683355Y-115487392D01*
X146719131Y-115530985D01*
X146778578Y-115603422D01*
X146807654Y-115627284D01*
X147828000Y-116647631D01*
X147828000Y-116686067D01*
X147867044Y-116882356D01*
X147943632Y-117067256D01*
X148054821Y-117233662D01*
X148196338Y-117375179D01*
X148362744Y-117486368D01*
X148547644Y-117562956D01*
X148743933Y-117602000D01*
X148944067Y-117602000D01*
X149140356Y-117562956D01*
X149325256Y-117486368D01*
X149491662Y-117375179D01*
X149633179Y-117233662D01*
X149744368Y-117067256D01*
X149820956Y-116882356D01*
X149860000Y-116686067D01*
X149860000Y-116485933D01*
X149820956Y-116289644D01*
X149744368Y-116104744D01*
X149633179Y-115938338D01*
X149491662Y-115796821D01*
X149325256Y-115685632D01*
X149140356Y-115609044D01*
X148944067Y-115570000D01*
X148905631Y-115570000D01*
X148082000Y-114746370D01*
X148082000Y-112976707D01*
X148234759Y-112874637D01*
X148434637Y-112674759D01*
X148591680Y-112439727D01*
X148699853Y-112178574D01*
X148755000Y-111901335D01*
X148755000Y-111618665D01*
X148699853Y-111341426D01*
X148591680Y-111080273D01*
X148434637Y-110845241D01*
X148234759Y-110645363D01*
X147999727Y-110488320D01*
X147738574Y-110380147D01*
X147461335Y-110325000D01*
X147178665Y-110325000D01*
X146901426Y-110380147D01*
X146640273Y-110488320D01*
X146405241Y-110645363D01*
X146205363Y-110845241D01*
X146048320Y-111080273D01*
X145940147Y-111341426D01*
X145885000Y-111618665D01*
X143749724Y-111618665D01*
X143718787Y-111409870D01*
X143623603Y-111143708D01*
X143556671Y-111018486D01*
X143312702Y-110946903D01*
X142499605Y-111760000D01*
X142140395Y-111760000D01*
X142126253Y-111745858D01*
X142305858Y-111566253D01*
X142320000Y-111580395D01*
X143133097Y-110767298D01*
X143061514Y-110523329D01*
X142806004Y-110402429D01*
X142531816Y-110333700D01*
X142249488Y-110319783D01*
X141969870Y-110361213D01*
X141703708Y-110456397D01*
X141605000Y-110509157D01*
X141605000Y-107592702D01*
X143966903Y-107592702D01*
X144038486Y-107836671D01*
X144293996Y-107957571D01*
X144568184Y-108026300D01*
X144850512Y-108040217D01*
X145130130Y-107998787D01*
X145396292Y-107903603D01*
X145521514Y-107836671D01*
X145593097Y-107592702D01*
X144780000Y-106779605D01*
X143966903Y-107592702D01*
X141605000Y-107592702D01*
X141605000Y-106670512D01*
X143339783Y-106670512D01*
X143381213Y-106950130D01*
X143476397Y-107216292D01*
X143543329Y-107341514D01*
X143787298Y-107413097D01*
X144600395Y-106600000D01*
X144959605Y-106600000D01*
X145772702Y-107413097D01*
X146016671Y-107341514D01*
X146137571Y-107086004D01*
X146206300Y-106811816D01*
X146220217Y-106529488D01*
X146178787Y-106249870D01*
X146083603Y-105983708D01*
X146016671Y-105858486D01*
X145772702Y-105786903D01*
X144959605Y-106600000D01*
X144600395Y-106600000D01*
X143787298Y-105786903D01*
X143543329Y-105858486D01*
X143422429Y-106113996D01*
X143353700Y-106388184D01*
X143339783Y-106670512D01*
X141605000Y-106670512D01*
X141605000Y-105607298D01*
X143966903Y-105607298D01*
X144780000Y-106420395D01*
X145593097Y-105607298D01*
X145521514Y-105363329D01*
X145266004Y-105242429D01*
X144991816Y-105173700D01*
X144709488Y-105159783D01*
X144429870Y-105201213D01*
X144163708Y-105296397D01*
X144038486Y-105363329D01*
X143966903Y-105607298D01*
X141605000Y-105607298D01*
X141605000Y-105199660D01*
X141609300Y-105156000D01*
X141605000Y-105112340D01*
X141605000Y-105112333D01*
X141592136Y-104981726D01*
X141541303Y-104814149D01*
X141458753Y-104659709D01*
X141381349Y-104565392D01*
X141375495Y-104558259D01*
X141375494Y-104558258D01*
X141347659Y-104524341D01*
X141313741Y-104496505D01*
X140359499Y-103542264D01*
X140331659Y-103508341D01*
X140196291Y-103397247D01*
X140041851Y-103314697D01*
X139874274Y-103263864D01*
X139743667Y-103251000D01*
X139743660Y-103251000D01*
X139700000Y-103246700D01*
X139656340Y-103251000D01*
X138291849Y-103251000D01*
X138274637Y-103225241D01*
X138074759Y-103025363D01*
X138049000Y-103008151D01*
X138049000Y-102730235D01*
X138290236Y-102489000D01*
X143648151Y-102489000D01*
X143665363Y-102514759D01*
X143865241Y-102714637D01*
X144100273Y-102871680D01*
X144361426Y-102979853D01*
X144638665Y-103035000D01*
X144921335Y-103035000D01*
X145198574Y-102979853D01*
X145459727Y-102871680D01*
X145694759Y-102714637D01*
X145894637Y-102514759D01*
X146051680Y-102279727D01*
X146159853Y-102018574D01*
X146215000Y-101741335D01*
X146215000Y-101458665D01*
X146159853Y-101181426D01*
X146051680Y-100920273D01*
X145894637Y-100685241D01*
X145694759Y-100485363D01*
X145459727Y-100328320D01*
X145198574Y-100220147D01*
X144921335Y-100165000D01*
X144638665Y-100165000D01*
X144361426Y-100220147D01*
X144100273Y-100328320D01*
X143865241Y-100485363D01*
X143665363Y-100685241D01*
X143648151Y-100711000D01*
X137965660Y-100711000D01*
X137922000Y-100706700D01*
X137878340Y-100711000D01*
X137878333Y-100711000D01*
X137764325Y-100722229D01*
X137747725Y-100723864D01*
X137696892Y-100739284D01*
X137580149Y-100774697D01*
X137425709Y-100857247D01*
X137290341Y-100968341D01*
X137262505Y-101002259D01*
X136562259Y-101702506D01*
X136528342Y-101730341D01*
X136500507Y-101764258D01*
X136500505Y-101764260D01*
X136417248Y-101865709D01*
X136334698Y-102020148D01*
X136283864Y-102187726D01*
X136266700Y-102362000D01*
X136271001Y-102405670D01*
X136271001Y-103008151D01*
X136245241Y-103025363D01*
X136045363Y-103225241D01*
X136028151Y-103251000D01*
X134988236Y-103251000D01*
X130978072Y-99240837D01*
X130978072Y-98260000D01*
X130965812Y-98135518D01*
X130929502Y-98015820D01*
X130870537Y-97905506D01*
X130791185Y-97808815D01*
X130694494Y-97729463D01*
X130584180Y-97670498D01*
X130464482Y-97634188D01*
X130340000Y-97621928D01*
X130332785Y-97621928D01*
X130353097Y-97552702D01*
X129540000Y-96739605D01*
X128726903Y-97552702D01*
X128747215Y-97621928D01*
X128740000Y-97621928D01*
X128615518Y-97634188D01*
X128495820Y-97670498D01*
X128385506Y-97729463D01*
X128288815Y-97808815D01*
X128209463Y-97905506D01*
X128150498Y-98015820D01*
X128114188Y-98135518D01*
X128101928Y-98260000D01*
X128101928Y-99860000D01*
X128114188Y-99984482D01*
X128150498Y-100104180D01*
X128209463Y-100214494D01*
X128288815Y-100311185D01*
X128385506Y-100390537D01*
X128495820Y-100449502D01*
X128615518Y-100485812D01*
X128740000Y-100498072D01*
X129720837Y-100498072D01*
X132344070Y-103121306D01*
X132334000Y-103120314D01*
X132296577Y-103124000D01*
X130593423Y-103124000D01*
X130556000Y-103120314D01*
X130518577Y-103124000D01*
X130518574Y-103124000D01*
X130406622Y-103135026D01*
X130262985Y-103178598D01*
X130201364Y-103211535D01*
X130130607Y-103249355D01*
X130074231Y-103295622D01*
X130014578Y-103344578D01*
X129990721Y-103373649D01*
X129027649Y-104336721D01*
X128998579Y-104360578D01*
X128974722Y-104389648D01*
X128974721Y-104389649D01*
X128903355Y-104476608D01*
X128832599Y-104608985D01*
X128789027Y-104752622D01*
X128774314Y-104902000D01*
X128778001Y-104939433D01*
X128778001Y-105523427D01*
X128657114Y-105604201D01*
X128464201Y-105797114D01*
X128312629Y-106023957D01*
X128208225Y-106276011D01*
X128155000Y-106543589D01*
X128155000Y-106816411D01*
X128208225Y-107083989D01*
X128312629Y-107336043D01*
X128464201Y-107562886D01*
X128657114Y-107755799D01*
X128883957Y-107907371D01*
X129136011Y-108011775D01*
X129403589Y-108065000D01*
X129676411Y-108065000D01*
X129943989Y-108011775D01*
X130196043Y-107907371D01*
X130422886Y-107755799D01*
X130615799Y-107562886D01*
X130767371Y-107336043D01*
X130871775Y-107083989D01*
X130925000Y-106816411D01*
X130925000Y-106543589D01*
X130871775Y-106276011D01*
X130767371Y-106023957D01*
X130615799Y-105797114D01*
X130422886Y-105604201D01*
X130302000Y-105523427D01*
X130302000Y-105217630D01*
X130871631Y-104648000D01*
X132018370Y-104648000D01*
X133096000Y-105725631D01*
X133096001Y-118302370D01*
X130302000Y-115508370D01*
X130302000Y-112716573D01*
X130422886Y-112635799D01*
X130615799Y-112442886D01*
X130767371Y-112216043D01*
X130871775Y-111963989D01*
X130925000Y-111696411D01*
X130925000Y-111423589D01*
X130871775Y-111156011D01*
X130767371Y-110903957D01*
X130615799Y-110677114D01*
X130422886Y-110484201D01*
X130196043Y-110332629D01*
X129943989Y-110228225D01*
X129676411Y-110175000D01*
X129403589Y-110175000D01*
X129136011Y-110228225D01*
X128883957Y-110332629D01*
X128657114Y-110484201D01*
X128464201Y-110677114D01*
X128312629Y-110903957D01*
X128208225Y-111156011D01*
X128155000Y-111423589D01*
X128155000Y-111696411D01*
X128208225Y-111963989D01*
X128312629Y-112216043D01*
X128464201Y-112442886D01*
X128657114Y-112635799D01*
X128778000Y-112716573D01*
X128778001Y-115786567D01*
X128774314Y-115824000D01*
X128789027Y-115973378D01*
X128832599Y-116117015D01*
X128903355Y-116249392D01*
X128968125Y-116328314D01*
X128998579Y-116365422D01*
X129027649Y-116389279D01*
X134435720Y-121797351D01*
X134459578Y-121826422D01*
X134575608Y-121921645D01*
X134707985Y-121992402D01*
X134851622Y-122035974D01*
X134963574Y-122047000D01*
X134963576Y-122047000D01*
X135000999Y-122050686D01*
X135038422Y-122047000D01*
X135447369Y-122047000D01*
X134107649Y-123386721D01*
X134078579Y-123410578D01*
X133983355Y-123526608D01*
X133912598Y-123658985D01*
X133869026Y-123802622D01*
X133858000Y-123914574D01*
X133854314Y-123952000D01*
X133858000Y-123989423D01*
X133858000Y-124144369D01*
X129861527Y-128140843D01*
X129681335Y-128105000D01*
X129398665Y-128105000D01*
X129121426Y-128160147D01*
X128860273Y-128268320D01*
X128625241Y-128425363D01*
X128425363Y-128625241D01*
X128268320Y-128860273D01*
X128160147Y-129121426D01*
X128105000Y-129398665D01*
X128105000Y-129681335D01*
X128160147Y-129958574D01*
X128268320Y-130219727D01*
X128425363Y-130454759D01*
X128625241Y-130654637D01*
X128857759Y-130810000D01*
X123843077Y-130810000D01*
X126835743Y-127817335D01*
X126869659Y-127789501D01*
X126980753Y-127654133D01*
X127063303Y-127499693D01*
X127107945Y-127352527D01*
X127114136Y-127332117D01*
X127118529Y-127287510D01*
X127127000Y-127201509D01*
X127127000Y-127201502D01*
X127131300Y-127157842D01*
X127127000Y-127114182D01*
X127127000Y-123050235D01*
X129368280Y-120808956D01*
X129398665Y-120815000D01*
X129681335Y-120815000D01*
X129958574Y-120759853D01*
X130219727Y-120651680D01*
X130454759Y-120494637D01*
X130654637Y-120294759D01*
X130811680Y-120059727D01*
X130919853Y-119798574D01*
X130975000Y-119521335D01*
X130975000Y-119238665D01*
X130919853Y-118961426D01*
X130811680Y-118700273D01*
X130654637Y-118465241D01*
X130454759Y-118265363D01*
X130219727Y-118108320D01*
X129958574Y-118000147D01*
X129681335Y-117945000D01*
X129398665Y-117945000D01*
X129121426Y-118000147D01*
X128860273Y-118108320D01*
X128625241Y-118265363D01*
X128425363Y-118465241D01*
X128268320Y-118700273D01*
X128160147Y-118961426D01*
X128105000Y-119238665D01*
X128105000Y-119521335D01*
X128111044Y-119551720D01*
X125640259Y-122022506D01*
X125606342Y-122050341D01*
X125578507Y-122084258D01*
X125578505Y-122084260D01*
X125495248Y-122185709D01*
X125412698Y-122340148D01*
X125361864Y-122507726D01*
X125344700Y-122682000D01*
X125349001Y-122725670D01*
X125349000Y-126789606D01*
X123217060Y-128921546D01*
X123191680Y-128860273D01*
X123034637Y-128625241D01*
X122834759Y-128425363D01*
X122602241Y-128270000D01*
X122834759Y-128114637D01*
X123034637Y-127914759D01*
X123191680Y-127679727D01*
X123299853Y-127418574D01*
X123355000Y-127141335D01*
X123355000Y-126858665D01*
X123299853Y-126581426D01*
X123191680Y-126320273D01*
X123034637Y-126085241D01*
X122834759Y-125885363D01*
X122602241Y-125730000D01*
X122834759Y-125574637D01*
X123034637Y-125374759D01*
X123191680Y-125139727D01*
X123299853Y-124878574D01*
X123355000Y-124601335D01*
X123355000Y-124318665D01*
X123299853Y-124041426D01*
X123191680Y-123780273D01*
X123034637Y-123545241D01*
X122834759Y-123345363D01*
X122602241Y-123190000D01*
X122834759Y-123034637D01*
X123034637Y-122834759D01*
X123191680Y-122599727D01*
X123299853Y-122338574D01*
X123355000Y-122061335D01*
X123355000Y-121778665D01*
X123299853Y-121501426D01*
X123191680Y-121240273D01*
X123034637Y-121005241D01*
X122834759Y-120805363D01*
X122602241Y-120650000D01*
X122834759Y-120494637D01*
X123034637Y-120294759D01*
X123191680Y-120059727D01*
X123299853Y-119798574D01*
X123355000Y-119521335D01*
X123355000Y-119238665D01*
X123319157Y-119058473D01*
X125480362Y-116897269D01*
X125509432Y-116873412D01*
X125604655Y-116757382D01*
X125675412Y-116625005D01*
X125718984Y-116481368D01*
X125730010Y-116369416D01*
X125730010Y-116369414D01*
X125733696Y-116331991D01*
X125730010Y-116294568D01*
X125730010Y-100918998D01*
X125733696Y-100881575D01*
X125729041Y-100834314D01*
X125718984Y-100732198D01*
X125675412Y-100588561D01*
X125604655Y-100456184D01*
X125509432Y-100340154D01*
X125480363Y-100316298D01*
X123203700Y-98039636D01*
X123179838Y-98010560D01*
X123063808Y-97915337D01*
X122931431Y-97844580D01*
X122787794Y-97801008D01*
X122675842Y-97789982D01*
X122675839Y-97789982D01*
X122638416Y-97786296D01*
X122600993Y-97789982D01*
X90020440Y-97789982D01*
X89983017Y-97786296D01*
X89945594Y-97789982D01*
X89945592Y-97789982D01*
X89833640Y-97801008D01*
X89690003Y-97844580D01*
X89557626Y-97915337D01*
X89441596Y-98010560D01*
X89417739Y-98039630D01*
X85379211Y-102078159D01*
X85227592Y-102048000D01*
X84952408Y-102048000D01*
X84682510Y-102101686D01*
X84428273Y-102206995D01*
X84199465Y-102359880D01*
X84004880Y-102554465D01*
X83851995Y-102783273D01*
X83746686Y-103037510D01*
X83693000Y-103307408D01*
X76860000Y-103307408D01*
X76860000Y-96630512D01*
X128099783Y-96630512D01*
X128141213Y-96910130D01*
X128236397Y-97176292D01*
X128303329Y-97301514D01*
X128547298Y-97373097D01*
X129360395Y-96560000D01*
X129719605Y-96560000D01*
X130532702Y-97373097D01*
X130776671Y-97301514D01*
X130897571Y-97046004D01*
X130966300Y-96771816D01*
X130980217Y-96489488D01*
X130938787Y-96209870D01*
X130843603Y-95943708D01*
X130776671Y-95818486D01*
X130532702Y-95746903D01*
X129719605Y-96560000D01*
X129360395Y-96560000D01*
X128547298Y-95746903D01*
X128303329Y-95818486D01*
X128182429Y-96073996D01*
X128113700Y-96348184D01*
X128099783Y-96630512D01*
X76860000Y-96630512D01*
X76860000Y-95567298D01*
X128726903Y-95567298D01*
X129540000Y-96380395D01*
X130353097Y-95567298D01*
X130281514Y-95323329D01*
X130026004Y-95202429D01*
X129751816Y-95133700D01*
X129469488Y-95119783D01*
X129189870Y-95161213D01*
X128923708Y-95256397D01*
X128798486Y-95323329D01*
X128726903Y-95567298D01*
X76860000Y-95567298D01*
X76860000Y-92100000D01*
X151740000Y-92100000D01*
X151740001Y-145644000D01*
%TA.AperFunction,Conductor*%
D20*
G36*
X151740001Y-145644000D02*
G01*
X76860000Y-145644000D01*
X76860000Y-141350000D01*
X108261928Y-141350000D01*
X108261928Y-143850000D01*
X108274188Y-143974482D01*
X108310498Y-144094180D01*
X108369463Y-144204494D01*
X108448815Y-144301185D01*
X108545506Y-144380537D01*
X108655820Y-144439502D01*
X108775518Y-144475812D01*
X108900000Y-144488072D01*
X110900000Y-144488072D01*
X111024482Y-144475812D01*
X111144180Y-144439502D01*
X111254494Y-144380537D01*
X111351185Y-144301185D01*
X111430537Y-144204494D01*
X111489502Y-144094180D01*
X111525812Y-143974482D01*
X111538072Y-143850000D01*
X111538072Y-141350000D01*
X117061928Y-141350000D01*
X117061928Y-143850000D01*
X117074188Y-143974482D01*
X117110498Y-144094180D01*
X117169463Y-144204494D01*
X117248815Y-144301185D01*
X117345506Y-144380537D01*
X117455820Y-144439502D01*
X117575518Y-144475812D01*
X117700000Y-144488072D01*
X119700000Y-144488072D01*
X119824482Y-144475812D01*
X119944180Y-144439502D01*
X120054494Y-144380537D01*
X120151185Y-144301185D01*
X120230537Y-144204494D01*
X120289502Y-144094180D01*
X120325812Y-143974482D01*
X120338072Y-143850000D01*
X120338072Y-141350000D01*
X120325812Y-141225518D01*
X120289502Y-141105820D01*
X120230537Y-140995506D01*
X120151185Y-140898815D01*
X120054494Y-140819463D01*
X119944180Y-140760498D01*
X119824482Y-140724188D01*
X119700000Y-140711928D01*
X117700000Y-140711928D01*
X117575518Y-140724188D01*
X117455820Y-140760498D01*
X117345506Y-140819463D01*
X117248815Y-140898815D01*
X117169463Y-140995506D01*
X117110498Y-141105820D01*
X117074188Y-141225518D01*
X117061928Y-141350000D01*
X111538072Y-141350000D01*
X111525812Y-141225518D01*
X111489502Y-141105820D01*
X111430537Y-140995506D01*
X111351185Y-140898815D01*
X111254494Y-140819463D01*
X111144180Y-140760498D01*
X111024482Y-140724188D01*
X110900000Y-140711928D01*
X108900000Y-140711928D01*
X108775518Y-140724188D01*
X108655820Y-140760498D01*
X108545506Y-140819463D01*
X108448815Y-140898815D01*
X108369463Y-140995506D01*
X108310498Y-141105820D01*
X108274188Y-141225518D01*
X108261928Y-141350000D01*
X76860000Y-141350000D01*
X76860000Y-135850000D01*
X108261928Y-135850000D01*
X108261928Y-138350000D01*
X108274188Y-138474482D01*
X108310498Y-138594180D01*
X108369463Y-138704494D01*
X108448815Y-138801185D01*
X108545506Y-138880537D01*
X108655820Y-138939502D01*
X108775518Y-138975812D01*
X108900000Y-138988072D01*
X110900000Y-138988072D01*
X111024482Y-138975812D01*
X111144180Y-138939502D01*
X111254494Y-138880537D01*
X111351185Y-138801185D01*
X111430537Y-138704494D01*
X111489502Y-138594180D01*
X111525812Y-138474482D01*
X111538072Y-138350000D01*
X111538072Y-135850000D01*
X111525812Y-135725518D01*
X111489502Y-135605820D01*
X111430537Y-135495506D01*
X111351185Y-135398815D01*
X111254494Y-135319463D01*
X111144180Y-135260498D01*
X111024482Y-135224188D01*
X110900000Y-135211928D01*
X108900000Y-135211928D01*
X108775518Y-135224188D01*
X108655820Y-135260498D01*
X108545506Y-135319463D01*
X108448815Y-135398815D01*
X108369463Y-135495506D01*
X108310498Y-135605820D01*
X108274188Y-135725518D01*
X108261928Y-135850000D01*
X76860000Y-135850000D01*
X76860000Y-103307408D01*
X83693000Y-103307408D01*
X83693000Y-103582592D01*
X83746686Y-103852490D01*
X83851995Y-104106727D01*
X84004880Y-104335535D01*
X84199465Y-104530120D01*
X84428273Y-104683005D01*
X84682510Y-104788314D01*
X84952408Y-104842000D01*
X85227592Y-104842000D01*
X85497490Y-104788314D01*
X85751727Y-104683005D01*
X85980535Y-104530120D01*
X86175120Y-104335535D01*
X86328005Y-104106727D01*
X86360000Y-104029485D01*
X86391995Y-104106727D01*
X86544880Y-104335535D01*
X86739465Y-104530120D01*
X86968273Y-104683005D01*
X87222510Y-104788314D01*
X87492408Y-104842000D01*
X87767592Y-104842000D01*
X88037490Y-104788314D01*
X88291727Y-104683005D01*
X88520535Y-104530120D01*
X88715120Y-104335535D01*
X88868005Y-104106727D01*
X88900000Y-104029485D01*
X88931995Y-104106727D01*
X89084880Y-104335535D01*
X89279465Y-104530120D01*
X89508273Y-104683005D01*
X89762510Y-104788314D01*
X90032408Y-104842000D01*
X90307592Y-104842000D01*
X90577490Y-104788314D01*
X90831727Y-104683005D01*
X91060535Y-104530120D01*
X91255120Y-104335535D01*
X91408005Y-104106727D01*
X91440000Y-104029485D01*
X91471995Y-104106727D01*
X91624880Y-104335535D01*
X91819465Y-104530120D01*
X92048273Y-104683005D01*
X92302510Y-104788314D01*
X92572408Y-104842000D01*
X92847592Y-104842000D01*
X93117490Y-104788314D01*
X93371727Y-104683005D01*
X93600535Y-104530120D01*
X93795120Y-104335535D01*
X93948005Y-104106727D01*
X93980000Y-104029485D01*
X94011995Y-104106727D01*
X94164880Y-104335535D01*
X94359465Y-104530120D01*
X94588273Y-104683005D01*
X94842510Y-104788314D01*
X95112408Y-104842000D01*
X95387592Y-104842000D01*
X95539211Y-104811841D01*
X96738719Y-106011350D01*
X96762577Y-106040421D01*
X96878607Y-106135644D01*
X97010984Y-106206401D01*
X97154621Y-106249973D01*
X97266573Y-106260999D01*
X97266575Y-106260999D01*
X97303998Y-106264685D01*
X97341421Y-106260999D01*
X103481370Y-106260999D01*
X84577649Y-125164721D01*
X84548579Y-125188578D01*
X84524722Y-125217648D01*
X84524721Y-125217649D01*
X84453355Y-125304608D01*
X84382599Y-125436985D01*
X84339027Y-125580622D01*
X84324314Y-125730000D01*
X84328001Y-125767433D01*
X84328001Y-126523995D01*
X84199465Y-126609880D01*
X84004880Y-126804465D01*
X83851995Y-127033273D01*
X83746686Y-127287510D01*
X83693000Y-127557408D01*
X83693000Y-127832592D01*
X83746686Y-128102490D01*
X83851995Y-128356727D01*
X84004880Y-128585535D01*
X84199465Y-128780120D01*
X84428273Y-128933005D01*
X84682510Y-129038314D01*
X84952408Y-129092000D01*
X85227592Y-129092000D01*
X85497490Y-129038314D01*
X85751727Y-128933005D01*
X85980535Y-128780120D01*
X86175120Y-128585535D01*
X86328005Y-128356727D01*
X86360000Y-128279485D01*
X86391995Y-128356727D01*
X86544880Y-128585535D01*
X86739465Y-128780120D01*
X86968273Y-128933005D01*
X87222510Y-129038314D01*
X87492408Y-129092000D01*
X87767592Y-129092000D01*
X88037490Y-129038314D01*
X88291727Y-128933005D01*
X88520535Y-128780120D01*
X88715120Y-128585535D01*
X88868005Y-128356727D01*
X88900000Y-128279485D01*
X88931995Y-128356727D01*
X89084880Y-128585535D01*
X89279465Y-128780120D01*
X89508273Y-128933005D01*
X89762510Y-129038314D01*
X90032408Y-129092000D01*
X90307592Y-129092000D01*
X90577490Y-129038314D01*
X90831727Y-128933005D01*
X91060535Y-128780120D01*
X91255120Y-128585535D01*
X91408005Y-128356727D01*
X91440000Y-128279485D01*
X91471995Y-128356727D01*
X91624880Y-128585535D01*
X91819465Y-128780120D01*
X92048273Y-128933005D01*
X92302510Y-129038314D01*
X92572408Y-129092000D01*
X92847592Y-129092000D01*
X93117490Y-129038314D01*
X93371727Y-128933005D01*
X93600535Y-128780120D01*
X93795120Y-128585535D01*
X93948005Y-128356727D01*
X93980000Y-128279485D01*
X94011995Y-128356727D01*
X94164880Y-128585535D01*
X94359465Y-128780120D01*
X94588273Y-128933005D01*
X94842510Y-129038314D01*
X95112408Y-129092000D01*
X95387592Y-129092000D01*
X95657490Y-129038314D01*
X95911727Y-128933005D01*
X96140535Y-128780120D01*
X96335120Y-128585535D01*
X96488005Y-128356727D01*
X96520000Y-128279485D01*
X96551995Y-128356727D01*
X96704880Y-128585535D01*
X96899465Y-128780120D01*
X97128273Y-128933005D01*
X97382510Y-129038314D01*
X97652408Y-129092000D01*
X97927592Y-129092000D01*
X98197490Y-129038314D01*
X98451727Y-128933005D01*
X98680535Y-128780120D01*
X98875120Y-128585535D01*
X99028005Y-128356727D01*
X99060000Y-128279485D01*
X99091995Y-128356727D01*
X99244880Y-128585535D01*
X99439465Y-128780120D01*
X99668273Y-128933005D01*
X99922510Y-129038314D01*
X100192408Y-129092000D01*
X100467592Y-129092000D01*
X100619211Y-129061841D01*
X101609721Y-130052352D01*
X101633578Y-130081422D01*
X101749608Y-130176645D01*
X101881985Y-130247402D01*
X102025622Y-130290974D01*
X102137574Y-130302000D01*
X102137576Y-130302000D01*
X102174999Y-130305686D01*
X102212422Y-130302000D01*
X103340577Y-130302000D01*
X103378000Y-130305686D01*
X103415423Y-130302000D01*
X103415426Y-130302000D01*
X103527378Y-130290974D01*
X103671015Y-130247402D01*
X103803392Y-130176645D01*
X103919422Y-130081422D01*
X103943284Y-130052346D01*
X112672630Y-121323001D01*
X113002594Y-121323001D01*
X112948754Y-121436913D01*
X112908096Y-121570961D01*
X113030085Y-121793000D01*
X114173000Y-121793000D01*
X114173000Y-121773000D01*
X114427000Y-121773000D01*
X114427000Y-121793000D01*
X114447000Y-121793000D01*
X114447000Y-122047000D01*
X114427000Y-122047000D01*
X114427000Y-122067000D01*
X114173000Y-122067000D01*
X114173000Y-122047000D01*
X113030085Y-122047000D01*
X112908096Y-122269039D01*
X112948754Y-122403087D01*
X113068963Y-122657420D01*
X113236481Y-122883414D01*
X113444869Y-123072385D01*
X113630865Y-123183933D01*
X113620273Y-123188320D01*
X113385241Y-123345363D01*
X113185363Y-123545241D01*
X113028320Y-123780273D01*
X112920147Y-124041426D01*
X112865000Y-124318665D01*
X112865000Y-124601335D01*
X112920147Y-124878574D01*
X113028320Y-125139727D01*
X113185363Y-125374759D01*
X113385241Y-125574637D01*
X113617759Y-125730000D01*
X113385241Y-125885363D01*
X113185363Y-126085241D01*
X113028320Y-126320273D01*
X112920147Y-126581426D01*
X112865000Y-126858665D01*
X112865000Y-127141335D01*
X112920147Y-127418574D01*
X113028320Y-127679727D01*
X113151063Y-127863425D01*
X112263649Y-128750839D01*
X112234579Y-128774696D01*
X112210722Y-128803766D01*
X112210721Y-128803767D01*
X112139355Y-128890726D01*
X112068599Y-129023103D01*
X112025027Y-129166740D01*
X112010314Y-129316118D01*
X112014001Y-129353551D01*
X112014000Y-131491010D01*
X112010314Y-131528434D01*
X112014000Y-131565857D01*
X112014000Y-131565859D01*
X112025026Y-131677811D01*
X112068598Y-131821448D01*
X112073357Y-131830351D01*
X112139355Y-131953826D01*
X112175108Y-131997391D01*
X112234578Y-132069856D01*
X112263653Y-132093717D01*
X112762286Y-132592351D01*
X112786144Y-132621422D01*
X112902174Y-132716645D01*
X113034551Y-132787402D01*
X113178188Y-132830974D01*
X113290140Y-132842000D01*
X113290142Y-132842000D01*
X113327565Y-132845686D01*
X113364988Y-132842000D01*
X115254369Y-132842000D01*
X113792000Y-134304370D01*
X113792000Y-134265933D01*
X113752956Y-134069644D01*
X113676368Y-133884744D01*
X113565179Y-133718338D01*
X113423662Y-133576821D01*
X113257256Y-133465632D01*
X113072356Y-133389044D01*
X112876067Y-133350000D01*
X112675933Y-133350000D01*
X112479644Y-133389044D01*
X112294744Y-133465632D01*
X112128338Y-133576821D01*
X111986821Y-133718338D01*
X111875632Y-133884744D01*
X111799044Y-134069644D01*
X111760000Y-134265933D01*
X111760000Y-134466067D01*
X111799044Y-134662356D01*
X111811001Y-134691223D01*
X111811000Y-137143666D01*
X111811928Y-137153088D01*
X111811928Y-138350000D01*
X111824188Y-138474482D01*
X111860498Y-138594180D01*
X111883304Y-138636847D01*
X111783517Y-138656696D01*
X111586060Y-138738485D01*
X111408353Y-138857225D01*
X111257225Y-139008353D01*
X111138485Y-139186060D01*
X111056696Y-139383517D01*
X111015000Y-139593137D01*
X111015000Y-139806863D01*
X111056696Y-140016483D01*
X111138485Y-140213940D01*
X111257225Y-140391647D01*
X111408353Y-140542775D01*
X111586060Y-140661515D01*
X111783517Y-140743304D01*
X111993137Y-140785000D01*
X112206863Y-140785000D01*
X112416483Y-140743304D01*
X112613940Y-140661515D01*
X112791647Y-140542775D01*
X112942775Y-140391647D01*
X113061515Y-140213940D01*
X113143304Y-140016483D01*
X113185000Y-139806863D01*
X113185000Y-139593137D01*
X113143304Y-139383517D01*
X113061515Y-139186060D01*
X112942775Y-139008353D01*
X112922494Y-138988072D01*
X112950000Y-138988072D01*
X113074482Y-138975812D01*
X113100000Y-138968071D01*
X113125518Y-138975812D01*
X113250000Y-138988072D01*
X113750000Y-138988072D01*
X113874482Y-138975812D01*
X113900000Y-138968071D01*
X113925518Y-138975812D01*
X114050000Y-138988072D01*
X114550000Y-138988072D01*
X114674482Y-138975812D01*
X114700000Y-138968071D01*
X114725518Y-138975812D01*
X114850000Y-138988072D01*
X115350000Y-138988072D01*
X115474482Y-138975812D01*
X115499329Y-138968275D01*
X115519187Y-138974519D01*
X115618250Y-138985000D01*
X115772998Y-138830252D01*
X115772998Y-138892580D01*
X115657225Y-139008353D01*
X115538485Y-139186060D01*
X115456696Y-139383517D01*
X115415000Y-139593137D01*
X115415000Y-139806863D01*
X115456696Y-140016483D01*
X115538485Y-140213940D01*
X115657225Y-140391647D01*
X115808353Y-140542775D01*
X115986060Y-140661515D01*
X116183517Y-140743304D01*
X116393137Y-140785000D01*
X116606863Y-140785000D01*
X116816483Y-140743304D01*
X117013940Y-140661515D01*
X117191647Y-140542775D01*
X117342775Y-140391647D01*
X117461515Y-140213940D01*
X117543304Y-140016483D01*
X117585000Y-139806863D01*
X117585000Y-139593137D01*
X117543304Y-139383517D01*
X117461515Y-139186060D01*
X117342775Y-139008353D01*
X117191647Y-138857225D01*
X117013940Y-138738485D01*
X116816483Y-138656696D01*
X116716582Y-138636824D01*
X116741944Y-138588197D01*
X116777040Y-138468138D01*
X116788039Y-138343538D01*
X116785000Y-137385750D01*
X116626250Y-137227000D01*
X116023000Y-137227000D01*
X116023000Y-137247000D01*
X115988072Y-137247000D01*
X115988072Y-135850000D01*
X115975812Y-135725518D01*
X115939502Y-135605820D01*
X115880537Y-135495506D01*
X115801185Y-135398815D01*
X115777000Y-135378967D01*
X115777000Y-135373750D01*
X116023000Y-135373750D01*
X116023000Y-136973000D01*
X116626250Y-136973000D01*
X116785000Y-136814250D01*
X116788039Y-135856462D01*
X116787469Y-135850000D01*
X117061928Y-135850000D01*
X117061928Y-138350000D01*
X117074188Y-138474482D01*
X117110498Y-138594180D01*
X117169463Y-138704494D01*
X117248815Y-138801185D01*
X117345506Y-138880537D01*
X117455820Y-138939502D01*
X117575518Y-138975812D01*
X117700000Y-138988072D01*
X119700000Y-138988072D01*
X119824482Y-138975812D01*
X119944180Y-138939502D01*
X120054494Y-138880537D01*
X120151185Y-138801185D01*
X120230537Y-138704494D01*
X120289502Y-138594180D01*
X120325812Y-138474482D01*
X120338072Y-138350000D01*
X120338072Y-135850000D01*
X120325812Y-135725518D01*
X120289502Y-135605820D01*
X120230537Y-135495506D01*
X120151185Y-135398815D01*
X120054494Y-135319463D01*
X119944180Y-135260498D01*
X119824482Y-135224188D01*
X119700000Y-135211928D01*
X117700000Y-135211928D01*
X117575518Y-135224188D01*
X117455820Y-135260498D01*
X117345506Y-135319463D01*
X117248815Y-135398815D01*
X117169463Y-135495506D01*
X117110498Y-135605820D01*
X117074188Y-135725518D01*
X117061928Y-135850000D01*
X116787469Y-135850000D01*
X116777040Y-135731862D01*
X116741944Y-135611803D01*
X116684100Y-135500897D01*
X116605731Y-135403407D01*
X116509848Y-135323080D01*
X116400137Y-135263001D01*
X116280813Y-135225481D01*
X116181750Y-135215000D01*
X116023000Y-135373750D01*
X115777000Y-135373750D01*
X115688440Y-135285190D01*
X117115631Y-133858000D01*
X148806577Y-133858000D01*
X148844000Y-133861686D01*
X148881423Y-133858000D01*
X148881426Y-133858000D01*
X148993378Y-133846974D01*
X149137015Y-133803402D01*
X149269392Y-133732645D01*
X149385422Y-133637422D01*
X149409284Y-133608346D01*
X150880353Y-132137278D01*
X150909422Y-132113422D01*
X151004645Y-131997392D01*
X151075402Y-131865015D01*
X151118974Y-131721378D01*
X151130000Y-131609426D01*
X151130000Y-131609424D01*
X151133686Y-131572001D01*
X151130000Y-131534578D01*
X151130000Y-120941423D01*
X151133686Y-120904000D01*
X151130000Y-120866574D01*
X151118974Y-120754622D01*
X151075402Y-120610985D01*
X151008062Y-120485000D01*
X151004645Y-120478607D01*
X150933279Y-120391648D01*
X150909422Y-120362578D01*
X150880351Y-120338721D01*
X150044284Y-119502653D01*
X150020422Y-119473578D01*
X149904392Y-119378355D01*
X149772015Y-119307598D01*
X149628378Y-119264026D01*
X149516426Y-119253000D01*
X149516423Y-119253000D01*
X149479000Y-119249314D01*
X149441577Y-119253000D01*
X148515477Y-119253000D01*
X148540812Y-119169482D01*
X148553072Y-119045000D01*
X148550000Y-119030750D01*
X148391250Y-118872000D01*
X147017000Y-118872000D01*
X147017000Y-118892000D01*
X146763000Y-118892000D01*
X146763000Y-118872000D01*
X145388750Y-118872000D01*
X145230000Y-119030750D01*
X145226928Y-119045000D01*
X145239188Y-119169482D01*
X145275498Y-119289180D01*
X145334463Y-119399494D01*
X145358730Y-119429064D01*
X145286916Y-119563418D01*
X145242071Y-119711255D01*
X145226928Y-119865000D01*
X145226928Y-120165000D01*
X145242071Y-120318745D01*
X145286916Y-120466582D01*
X145359742Y-120602829D01*
X145398454Y-120650000D01*
X145359742Y-120697171D01*
X145286916Y-120833418D01*
X145242071Y-120981255D01*
X145226928Y-121135000D01*
X145226928Y-121435000D01*
X145242071Y-121588745D01*
X145286916Y-121736582D01*
X145359742Y-121872829D01*
X145398454Y-121920000D01*
X145359742Y-121967171D01*
X145286916Y-122103418D01*
X145242071Y-122251255D01*
X145226928Y-122405000D01*
X145226928Y-122705000D01*
X145242071Y-122858745D01*
X145286916Y-123006582D01*
X145359742Y-123142829D01*
X145398454Y-123190000D01*
X145359742Y-123237171D01*
X145286916Y-123373418D01*
X145242071Y-123521255D01*
X145226928Y-123675000D01*
X145226928Y-123975000D01*
X145242071Y-124128745D01*
X145286916Y-124276582D01*
X145359742Y-124412829D01*
X145398454Y-124460000D01*
X145359742Y-124507171D01*
X145286916Y-124643418D01*
X145242071Y-124791255D01*
X145226928Y-124945000D01*
X145226928Y-125245000D01*
X145242071Y-125398745D01*
X145286916Y-125546582D01*
X145359742Y-125682829D01*
X145398454Y-125730000D01*
X145359742Y-125777171D01*
X145286916Y-125913418D01*
X145242071Y-126061255D01*
X145226928Y-126215000D01*
X145226928Y-126515000D01*
X145242071Y-126668745D01*
X145286916Y-126816582D01*
X145359742Y-126952829D01*
X145398454Y-127000000D01*
X145359742Y-127047171D01*
X145286916Y-127183418D01*
X145242071Y-127331255D01*
X145226928Y-127485000D01*
X145226928Y-127785000D01*
X145242071Y-127938745D01*
X145286916Y-128086582D01*
X145359742Y-128222829D01*
X145398454Y-128270000D01*
X145359742Y-128317171D01*
X145286916Y-128453418D01*
X145242071Y-128601255D01*
X145226928Y-128755000D01*
X145226928Y-129055000D01*
X145242071Y-129208745D01*
X145286916Y-129356582D01*
X145359742Y-129492829D01*
X145398454Y-129540000D01*
X145359742Y-129587171D01*
X145286916Y-129723418D01*
X145242071Y-129871255D01*
X145226928Y-130025000D01*
X145226928Y-130325000D01*
X145242071Y-130478745D01*
X145286916Y-130626582D01*
X145359742Y-130762829D01*
X145457749Y-130882251D01*
X145577171Y-130980258D01*
X145713418Y-131053084D01*
X145861255Y-131097929D01*
X146015000Y-131113072D01*
X147765000Y-131113072D01*
X147866393Y-131103085D01*
X147867044Y-131106356D01*
X147943632Y-131291256D01*
X148054821Y-131457662D01*
X148196338Y-131599179D01*
X148362744Y-131710368D01*
X148412824Y-131731112D01*
X148317936Y-131826000D01*
X134721630Y-131826000D01*
X135971586Y-130576045D01*
X135986916Y-130626582D01*
X136059742Y-130762829D01*
X136157749Y-130882251D01*
X136277171Y-130980258D01*
X136413418Y-131053084D01*
X136561255Y-131097929D01*
X136715000Y-131113072D01*
X138465000Y-131113072D01*
X138618745Y-131097929D01*
X138766582Y-131053084D01*
X138902829Y-130980258D01*
X139022251Y-130882251D01*
X139120258Y-130762829D01*
X139193084Y-130626582D01*
X139237929Y-130478745D01*
X139253072Y-130325000D01*
X139253072Y-130025000D01*
X139237929Y-129871255D01*
X139193084Y-129723418D01*
X139120258Y-129587171D01*
X139081546Y-129540000D01*
X139120258Y-129492829D01*
X139193084Y-129356582D01*
X139237929Y-129208745D01*
X139253072Y-129055000D01*
X139253072Y-128755000D01*
X139237929Y-128601255D01*
X139193084Y-128453418D01*
X139120258Y-128317171D01*
X139081546Y-128270000D01*
X139120258Y-128222829D01*
X139193084Y-128086582D01*
X139237929Y-127938745D01*
X139253072Y-127785000D01*
X139253072Y-127485000D01*
X139237929Y-127331255D01*
X139193084Y-127183418D01*
X139120258Y-127047171D01*
X139081546Y-127000000D01*
X139120258Y-126952829D01*
X139193084Y-126816582D01*
X139237929Y-126668745D01*
X139253072Y-126515000D01*
X139253072Y-126215000D01*
X139237929Y-126061255D01*
X139193084Y-125913418D01*
X139120258Y-125777171D01*
X139081546Y-125730000D01*
X139120258Y-125682829D01*
X139193084Y-125546582D01*
X139237929Y-125398745D01*
X139253072Y-125245000D01*
X139253072Y-124945000D01*
X139237929Y-124791255D01*
X139193084Y-124643418D01*
X139120258Y-124507171D01*
X139081546Y-124460000D01*
X139120258Y-124412829D01*
X139193084Y-124276582D01*
X139237929Y-124128745D01*
X139253072Y-123975000D01*
X139253072Y-123675000D01*
X139237929Y-123521255D01*
X139193084Y-123373418D01*
X139120258Y-123237171D01*
X139081546Y-123190000D01*
X139120258Y-123142829D01*
X139193084Y-123006582D01*
X139237929Y-122858745D01*
X139253072Y-122705000D01*
X139253072Y-122405000D01*
X139237929Y-122251255D01*
X139193084Y-122103418D01*
X139120258Y-121967171D01*
X139081546Y-121920000D01*
X139120258Y-121872829D01*
X139193084Y-121736582D01*
X139237929Y-121588745D01*
X139253072Y-121435000D01*
X139253072Y-121135000D01*
X139237929Y-120981255D01*
X139193084Y-120833418D01*
X139120258Y-120697171D01*
X139081546Y-120650000D01*
X139120258Y-120602829D01*
X139193084Y-120466582D01*
X139237929Y-120318745D01*
X139253072Y-120165000D01*
X139253072Y-119865000D01*
X139237929Y-119711255D01*
X139193084Y-119563418D01*
X139120258Y-119427171D01*
X139081546Y-119380000D01*
X139120258Y-119332829D01*
X139193084Y-119196582D01*
X139237929Y-119048745D01*
X139253072Y-118895000D01*
X139253072Y-118595000D01*
X139238298Y-118445000D01*
X145226928Y-118445000D01*
X145230000Y-118459250D01*
X145388750Y-118618000D01*
X146763000Y-118618000D01*
X146763000Y-117968750D01*
X147017000Y-117968750D01*
X147017000Y-118618000D01*
X148391250Y-118618000D01*
X148550000Y-118459250D01*
X148553072Y-118445000D01*
X148540812Y-118320518D01*
X148504502Y-118200820D01*
X148445537Y-118090506D01*
X148366185Y-117993815D01*
X148269494Y-117914463D01*
X148159180Y-117855498D01*
X148039482Y-117819188D01*
X147915000Y-117806928D01*
X147175750Y-117810000D01*
X147017000Y-117968750D01*
X146763000Y-117968750D01*
X146604250Y-117810000D01*
X145865000Y-117806928D01*
X145740518Y-117819188D01*
X145620820Y-117855498D01*
X145510506Y-117914463D01*
X145413815Y-117993815D01*
X145334463Y-118090506D01*
X145275498Y-118200820D01*
X145239188Y-118320518D01*
X145226928Y-118445000D01*
X139238298Y-118445000D01*
X139237929Y-118441255D01*
X139193084Y-118293418D01*
X139120258Y-118157171D01*
X139022251Y-118037749D01*
X138902829Y-117939742D01*
X138766582Y-117866916D01*
X138618745Y-117822071D01*
X138465000Y-117806928D01*
X136715000Y-117806928D01*
X136561255Y-117822071D01*
X136449404Y-117856000D01*
X136385235Y-117856000D01*
X136766236Y-117475000D01*
X138894340Y-117475000D01*
X138938000Y-117479300D01*
X138981660Y-117475000D01*
X138981667Y-117475000D01*
X139112274Y-117462136D01*
X139279851Y-117411303D01*
X139434291Y-117328753D01*
X139569659Y-117217659D01*
X139597499Y-117183736D01*
X141313743Y-115467493D01*
X141347659Y-115439659D01*
X141458753Y-115304291D01*
X141541303Y-115149851D01*
X141592136Y-114982274D01*
X141605000Y-114851667D01*
X141605000Y-114851660D01*
X141609300Y-114808000D01*
X141605000Y-114764340D01*
X141605000Y-113009217D01*
X141833996Y-113117571D01*
X142108184Y-113186300D01*
X142390512Y-113200217D01*
X142670130Y-113158787D01*
X142936292Y-113063603D01*
X143061514Y-112996671D01*
X143133097Y-112752702D01*
X142320000Y-111939605D01*
X142305858Y-111953748D01*
X142126253Y-111774143D01*
X142140395Y-111760000D01*
X142499605Y-111760000D01*
X143312702Y-112573097D01*
X143556671Y-112501514D01*
X143677571Y-112246004D01*
X143746300Y-111971816D01*
X143760217Y-111689488D01*
X143749724Y-111618665D01*
X145885000Y-111618665D01*
X145885000Y-111901335D01*
X145940147Y-112178574D01*
X146048320Y-112439727D01*
X146205363Y-112674759D01*
X146405241Y-112874637D01*
X146558001Y-112976707D01*
X146558000Y-115024577D01*
X146554314Y-115062000D01*
X146558000Y-115099423D01*
X146558000Y-115099425D01*
X146569026Y-115211377D01*
X146612598Y-115355014D01*
X146639316Y-115405000D01*
X146683355Y-115487392D01*
X146719131Y-115530985D01*
X146778578Y-115603422D01*
X146807654Y-115627284D01*
X147828000Y-116647631D01*
X147828000Y-116686067D01*
X147867044Y-116882356D01*
X147943632Y-117067256D01*
X148054821Y-117233662D01*
X148196338Y-117375179D01*
X148362744Y-117486368D01*
X148547644Y-117562956D01*
X148743933Y-117602000D01*
X148944067Y-117602000D01*
X149140356Y-117562956D01*
X149325256Y-117486368D01*
X149491662Y-117375179D01*
X149633179Y-117233662D01*
X149744368Y-117067256D01*
X149820956Y-116882356D01*
X149860000Y-116686067D01*
X149860000Y-116485933D01*
X149820956Y-116289644D01*
X149744368Y-116104744D01*
X149633179Y-115938338D01*
X149491662Y-115796821D01*
X149325256Y-115685632D01*
X149140356Y-115609044D01*
X148944067Y-115570000D01*
X148905631Y-115570000D01*
X148082000Y-114746370D01*
X148082000Y-112976707D01*
X148234759Y-112874637D01*
X148434637Y-112674759D01*
X148591680Y-112439727D01*
X148699853Y-112178574D01*
X148755000Y-111901335D01*
X148755000Y-111618665D01*
X148699853Y-111341426D01*
X148591680Y-111080273D01*
X148434637Y-110845241D01*
X148234759Y-110645363D01*
X147999727Y-110488320D01*
X147738574Y-110380147D01*
X147461335Y-110325000D01*
X147178665Y-110325000D01*
X146901426Y-110380147D01*
X146640273Y-110488320D01*
X146405241Y-110645363D01*
X146205363Y-110845241D01*
X146048320Y-111080273D01*
X145940147Y-111341426D01*
X145885000Y-111618665D01*
X143749724Y-111618665D01*
X143718787Y-111409870D01*
X143623603Y-111143708D01*
X143556671Y-111018486D01*
X143312702Y-110946903D01*
X142499605Y-111760000D01*
X142140395Y-111760000D01*
X142126253Y-111745858D01*
X142305858Y-111566253D01*
X142320000Y-111580395D01*
X143133097Y-110767298D01*
X143061514Y-110523329D01*
X142806004Y-110402429D01*
X142531816Y-110333700D01*
X142249488Y-110319783D01*
X141969870Y-110361213D01*
X141703708Y-110456397D01*
X141605000Y-110509157D01*
X141605000Y-107592702D01*
X143966903Y-107592702D01*
X144038486Y-107836671D01*
X144293996Y-107957571D01*
X144568184Y-108026300D01*
X144850512Y-108040217D01*
X145130130Y-107998787D01*
X145396292Y-107903603D01*
X145521514Y-107836671D01*
X145593097Y-107592702D01*
X144780000Y-106779605D01*
X143966903Y-107592702D01*
X141605000Y-107592702D01*
X141605000Y-106670512D01*
X143339783Y-106670512D01*
X143381213Y-106950130D01*
X143476397Y-107216292D01*
X143543329Y-107341514D01*
X143787298Y-107413097D01*
X144600395Y-106600000D01*
X144959605Y-106600000D01*
X145772702Y-107413097D01*
X146016671Y-107341514D01*
X146137571Y-107086004D01*
X146206300Y-106811816D01*
X146220217Y-106529488D01*
X146178787Y-106249870D01*
X146083603Y-105983708D01*
X146016671Y-105858486D01*
X145772702Y-105786903D01*
X144959605Y-106600000D01*
X144600395Y-106600000D01*
X143787298Y-105786903D01*
X143543329Y-105858486D01*
X143422429Y-106113996D01*
X143353700Y-106388184D01*
X143339783Y-106670512D01*
X141605000Y-106670512D01*
X141605000Y-105607298D01*
X143966903Y-105607298D01*
X144780000Y-106420395D01*
X145593097Y-105607298D01*
X145521514Y-105363329D01*
X145266004Y-105242429D01*
X144991816Y-105173700D01*
X144709488Y-105159783D01*
X144429870Y-105201213D01*
X144163708Y-105296397D01*
X144038486Y-105363329D01*
X143966903Y-105607298D01*
X141605000Y-105607298D01*
X141605000Y-105199660D01*
X141609300Y-105156000D01*
X141605000Y-105112340D01*
X141605000Y-105112333D01*
X141592136Y-104981726D01*
X141541303Y-104814149D01*
X141458753Y-104659709D01*
X141381349Y-104565392D01*
X141375495Y-104558259D01*
X141375494Y-104558258D01*
X141347659Y-104524341D01*
X141313741Y-104496505D01*
X140359499Y-103542264D01*
X140331659Y-103508341D01*
X140196291Y-103397247D01*
X140041851Y-103314697D01*
X139874274Y-103263864D01*
X139743667Y-103251000D01*
X139743660Y-103251000D01*
X139700000Y-103246700D01*
X139656340Y-103251000D01*
X138291849Y-103251000D01*
X138274637Y-103225241D01*
X138074759Y-103025363D01*
X138049000Y-103008151D01*
X138049000Y-102730235D01*
X138290236Y-102489000D01*
X143648151Y-102489000D01*
X143665363Y-102514759D01*
X143865241Y-102714637D01*
X144100273Y-102871680D01*
X144361426Y-102979853D01*
X144638665Y-103035000D01*
X144921335Y-103035000D01*
X145198574Y-102979853D01*
X145459727Y-102871680D01*
X145694759Y-102714637D01*
X145894637Y-102514759D01*
X146051680Y-102279727D01*
X146159853Y-102018574D01*
X146215000Y-101741335D01*
X146215000Y-101458665D01*
X146159853Y-101181426D01*
X146051680Y-100920273D01*
X145894637Y-100685241D01*
X145694759Y-100485363D01*
X145459727Y-100328320D01*
X145198574Y-100220147D01*
X144921335Y-100165000D01*
X144638665Y-100165000D01*
X144361426Y-100220147D01*
X144100273Y-100328320D01*
X143865241Y-100485363D01*
X143665363Y-100685241D01*
X143648151Y-100711000D01*
X137965660Y-100711000D01*
X137922000Y-100706700D01*
X137878340Y-100711000D01*
X137878333Y-100711000D01*
X137764325Y-100722229D01*
X137747725Y-100723864D01*
X137696892Y-100739284D01*
X137580149Y-100774697D01*
X137425709Y-100857247D01*
X137290341Y-100968341D01*
X137262505Y-101002259D01*
X136562259Y-101702506D01*
X136528342Y-101730341D01*
X136500507Y-101764258D01*
X136500505Y-101764260D01*
X136417248Y-101865709D01*
X136334698Y-102020148D01*
X136283864Y-102187726D01*
X136266700Y-102362000D01*
X136271001Y-102405670D01*
X136271001Y-103008151D01*
X136245241Y-103025363D01*
X136045363Y-103225241D01*
X136028151Y-103251000D01*
X134988236Y-103251000D01*
X130978072Y-99240837D01*
X130978072Y-98260000D01*
X130965812Y-98135518D01*
X130929502Y-98015820D01*
X130870537Y-97905506D01*
X130791185Y-97808815D01*
X130694494Y-97729463D01*
X130584180Y-97670498D01*
X130464482Y-97634188D01*
X130340000Y-97621928D01*
X130332785Y-97621928D01*
X130353097Y-97552702D01*
X129540000Y-96739605D01*
X128726903Y-97552702D01*
X128747215Y-97621928D01*
X128740000Y-97621928D01*
X128615518Y-97634188D01*
X128495820Y-97670498D01*
X128385506Y-97729463D01*
X128288815Y-97808815D01*
X128209463Y-97905506D01*
X128150498Y-98015820D01*
X128114188Y-98135518D01*
X128101928Y-98260000D01*
X128101928Y-99860000D01*
X128114188Y-99984482D01*
X128150498Y-100104180D01*
X128209463Y-100214494D01*
X128288815Y-100311185D01*
X128385506Y-100390537D01*
X128495820Y-100449502D01*
X128615518Y-100485812D01*
X128740000Y-100498072D01*
X129720837Y-100498072D01*
X132344070Y-103121306D01*
X132334000Y-103120314D01*
X132296577Y-103124000D01*
X130593423Y-103124000D01*
X130556000Y-103120314D01*
X130518577Y-103124000D01*
X130518574Y-103124000D01*
X130406622Y-103135026D01*
X130262985Y-103178598D01*
X130201364Y-103211535D01*
X130130607Y-103249355D01*
X130074231Y-103295622D01*
X130014578Y-103344578D01*
X129990721Y-103373649D01*
X129027649Y-104336721D01*
X128998579Y-104360578D01*
X128974722Y-104389648D01*
X128974721Y-104389649D01*
X128903355Y-104476608D01*
X128832599Y-104608985D01*
X128789027Y-104752622D01*
X128774314Y-104902000D01*
X128778001Y-104939433D01*
X128778001Y-105523427D01*
X128657114Y-105604201D01*
X128464201Y-105797114D01*
X128312629Y-106023957D01*
X128208225Y-106276011D01*
X128155000Y-106543589D01*
X128155000Y-106816411D01*
X128208225Y-107083989D01*
X128312629Y-107336043D01*
X128464201Y-107562886D01*
X128657114Y-107755799D01*
X128883957Y-107907371D01*
X129136011Y-108011775D01*
X129403589Y-108065000D01*
X129676411Y-108065000D01*
X129943989Y-108011775D01*
X130196043Y-107907371D01*
X130422886Y-107755799D01*
X130615799Y-107562886D01*
X130767371Y-107336043D01*
X130871775Y-107083989D01*
X130925000Y-106816411D01*
X130925000Y-106543589D01*
X130871775Y-106276011D01*
X130767371Y-106023957D01*
X130615799Y-105797114D01*
X130422886Y-105604201D01*
X130302000Y-105523427D01*
X130302000Y-105217630D01*
X130871631Y-104648000D01*
X132018370Y-104648000D01*
X133096000Y-105725631D01*
X133096001Y-118302370D01*
X130302000Y-115508370D01*
X130302000Y-112716573D01*
X130422886Y-112635799D01*
X130615799Y-112442886D01*
X130767371Y-112216043D01*
X130871775Y-111963989D01*
X130925000Y-111696411D01*
X130925000Y-111423589D01*
X130871775Y-111156011D01*
X130767371Y-110903957D01*
X130615799Y-110677114D01*
X130422886Y-110484201D01*
X130196043Y-110332629D01*
X129943989Y-110228225D01*
X129676411Y-110175000D01*
X129403589Y-110175000D01*
X129136011Y-110228225D01*
X128883957Y-110332629D01*
X128657114Y-110484201D01*
X128464201Y-110677114D01*
X128312629Y-110903957D01*
X128208225Y-111156011D01*
X128155000Y-111423589D01*
X128155000Y-111696411D01*
X128208225Y-111963989D01*
X128312629Y-112216043D01*
X128464201Y-112442886D01*
X128657114Y-112635799D01*
X128778000Y-112716573D01*
X128778001Y-115786567D01*
X128774314Y-115824000D01*
X128789027Y-115973378D01*
X128832599Y-116117015D01*
X128903355Y-116249392D01*
X128968125Y-116328314D01*
X128998579Y-116365422D01*
X129027649Y-116389279D01*
X134435720Y-121797351D01*
X134459578Y-121826422D01*
X134575608Y-121921645D01*
X134707985Y-121992402D01*
X134851622Y-122035974D01*
X134963574Y-122047000D01*
X134963576Y-122047000D01*
X135000999Y-122050686D01*
X135038422Y-122047000D01*
X135447369Y-122047000D01*
X134107649Y-123386721D01*
X134078579Y-123410578D01*
X133983355Y-123526608D01*
X133912598Y-123658985D01*
X133869026Y-123802622D01*
X133858000Y-123914574D01*
X133854314Y-123952000D01*
X133858000Y-123989423D01*
X133858000Y-124144369D01*
X129861527Y-128140843D01*
X129681335Y-128105000D01*
X129398665Y-128105000D01*
X129121426Y-128160147D01*
X128860273Y-128268320D01*
X128625241Y-128425363D01*
X128425363Y-128625241D01*
X128268320Y-128860273D01*
X128160147Y-129121426D01*
X128105000Y-129398665D01*
X128105000Y-129681335D01*
X128160147Y-129958574D01*
X128268320Y-130219727D01*
X128425363Y-130454759D01*
X128625241Y-130654637D01*
X128857759Y-130810000D01*
X123843077Y-130810000D01*
X126835743Y-127817335D01*
X126869659Y-127789501D01*
X126980753Y-127654133D01*
X127063303Y-127499693D01*
X127107945Y-127352527D01*
X127114136Y-127332117D01*
X127118529Y-127287510D01*
X127127000Y-127201509D01*
X127127000Y-127201502D01*
X127131300Y-127157842D01*
X127127000Y-127114182D01*
X127127000Y-123050235D01*
X129368280Y-120808956D01*
X129398665Y-120815000D01*
X129681335Y-120815000D01*
X129958574Y-120759853D01*
X130219727Y-120651680D01*
X130454759Y-120494637D01*
X130654637Y-120294759D01*
X130811680Y-120059727D01*
X130919853Y-119798574D01*
X130975000Y-119521335D01*
X130975000Y-119238665D01*
X130919853Y-118961426D01*
X130811680Y-118700273D01*
X130654637Y-118465241D01*
X130454759Y-118265363D01*
X130219727Y-118108320D01*
X129958574Y-118000147D01*
X129681335Y-117945000D01*
X129398665Y-117945000D01*
X129121426Y-118000147D01*
X128860273Y-118108320D01*
X128625241Y-118265363D01*
X128425363Y-118465241D01*
X128268320Y-118700273D01*
X128160147Y-118961426D01*
X128105000Y-119238665D01*
X128105000Y-119521335D01*
X128111044Y-119551720D01*
X125640259Y-122022506D01*
X125606342Y-122050341D01*
X125578507Y-122084258D01*
X125578505Y-122084260D01*
X125495248Y-122185709D01*
X125412698Y-122340148D01*
X125361864Y-122507726D01*
X125344700Y-122682000D01*
X125349001Y-122725670D01*
X125349000Y-126789606D01*
X123217060Y-128921546D01*
X123191680Y-128860273D01*
X123034637Y-128625241D01*
X122834759Y-128425363D01*
X122602241Y-128270000D01*
X122834759Y-128114637D01*
X123034637Y-127914759D01*
X123191680Y-127679727D01*
X123299853Y-127418574D01*
X123355000Y-127141335D01*
X123355000Y-126858665D01*
X123299853Y-126581426D01*
X123191680Y-126320273D01*
X123034637Y-126085241D01*
X122834759Y-125885363D01*
X122602241Y-125730000D01*
X122834759Y-125574637D01*
X123034637Y-125374759D01*
X123191680Y-125139727D01*
X123299853Y-124878574D01*
X123355000Y-124601335D01*
X123355000Y-124318665D01*
X123299853Y-124041426D01*
X123191680Y-123780273D01*
X123034637Y-123545241D01*
X122834759Y-123345363D01*
X122602241Y-123190000D01*
X122834759Y-123034637D01*
X123034637Y-122834759D01*
X123191680Y-122599727D01*
X123299853Y-122338574D01*
X123355000Y-122061335D01*
X123355000Y-121778665D01*
X123299853Y-121501426D01*
X123191680Y-121240273D01*
X123034637Y-121005241D01*
X122834759Y-120805363D01*
X122602241Y-120650000D01*
X122834759Y-120494637D01*
X123034637Y-120294759D01*
X123191680Y-120059727D01*
X123299853Y-119798574D01*
X123355000Y-119521335D01*
X123355000Y-119238665D01*
X123319157Y-119058473D01*
X125480362Y-116897269D01*
X125509432Y-116873412D01*
X125604655Y-116757382D01*
X125675412Y-116625005D01*
X125718984Y-116481368D01*
X125730010Y-116369416D01*
X125730010Y-116369414D01*
X125733696Y-116331991D01*
X125730010Y-116294568D01*
X125730010Y-100918998D01*
X125733696Y-100881575D01*
X125729041Y-100834314D01*
X125718984Y-100732198D01*
X125675412Y-100588561D01*
X125604655Y-100456184D01*
X125509432Y-100340154D01*
X125480363Y-100316298D01*
X123203700Y-98039636D01*
X123179838Y-98010560D01*
X123063808Y-97915337D01*
X122931431Y-97844580D01*
X122787794Y-97801008D01*
X122675842Y-97789982D01*
X122675839Y-97789982D01*
X122638416Y-97786296D01*
X122600993Y-97789982D01*
X90020440Y-97789982D01*
X89983017Y-97786296D01*
X89945594Y-97789982D01*
X89945592Y-97789982D01*
X89833640Y-97801008D01*
X89690003Y-97844580D01*
X89557626Y-97915337D01*
X89441596Y-98010560D01*
X89417739Y-98039630D01*
X85379211Y-102078159D01*
X85227592Y-102048000D01*
X84952408Y-102048000D01*
X84682510Y-102101686D01*
X84428273Y-102206995D01*
X84199465Y-102359880D01*
X84004880Y-102554465D01*
X83851995Y-102783273D01*
X83746686Y-103037510D01*
X83693000Y-103307408D01*
X76860000Y-103307408D01*
X76860000Y-96630512D01*
X128099783Y-96630512D01*
X128141213Y-96910130D01*
X128236397Y-97176292D01*
X128303329Y-97301514D01*
X128547298Y-97373097D01*
X129360395Y-96560000D01*
X129719605Y-96560000D01*
X130532702Y-97373097D01*
X130776671Y-97301514D01*
X130897571Y-97046004D01*
X130966300Y-96771816D01*
X130980217Y-96489488D01*
X130938787Y-96209870D01*
X130843603Y-95943708D01*
X130776671Y-95818486D01*
X130532702Y-95746903D01*
X129719605Y-96560000D01*
X129360395Y-96560000D01*
X128547298Y-95746903D01*
X128303329Y-95818486D01*
X128182429Y-96073996D01*
X128113700Y-96348184D01*
X128099783Y-96630512D01*
X76860000Y-96630512D01*
X76860000Y-95567298D01*
X128726903Y-95567298D01*
X129540000Y-96380395D01*
X130353097Y-95567298D01*
X130281514Y-95323329D01*
X130026004Y-95202429D01*
X129751816Y-95133700D01*
X129469488Y-95119783D01*
X129189870Y-95161213D01*
X128923708Y-95256397D01*
X128798486Y-95323329D01*
X128726903Y-95567298D01*
X76860000Y-95567298D01*
X76860000Y-92100000D01*
X151740000Y-92100000D01*
X151740001Y-145644000D01*
G37*
%TD.AperFunction*%
D18*
X113185363Y-107594759D02*
X113385241Y-107794637D01*
X113620273Y-107951680D01*
X113630865Y-107956067D01*
X113444869Y-108067615D01*
X113236481Y-108256586D01*
X113068963Y-108482580D01*
X112948754Y-108736913D01*
X112908096Y-108870961D01*
X113030085Y-109093000D01*
X114173000Y-109093000D01*
X114173000Y-109073000D01*
X114427000Y-109073000D01*
X114427000Y-109093000D01*
X114447000Y-109093000D01*
X114447000Y-109347000D01*
X114427000Y-109347000D01*
X114427000Y-109367000D01*
X114173000Y-109367000D01*
X114173000Y-109347000D01*
X113030085Y-109347000D01*
X112908096Y-109569039D01*
X112948754Y-109703087D01*
X113068963Y-109957420D01*
X113236481Y-110183414D01*
X113444869Y-110372385D01*
X113630865Y-110483933D01*
X113620273Y-110488320D01*
X113385241Y-110645363D01*
X113185363Y-110845241D01*
X113083293Y-110998000D01*
X101129423Y-110998000D01*
X101092000Y-110994314D01*
X101054577Y-110998000D01*
X101054574Y-110998000D01*
X100942622Y-111009026D01*
X100865084Y-111032547D01*
X104455631Y-107442000D01*
X113083293Y-107442000D01*
X113185363Y-107594759D01*
%TA.AperFunction,Conductor*%
D20*
G36*
X113185363Y-107594759D02*
G01*
X113385241Y-107794637D01*
X113620273Y-107951680D01*
X113630865Y-107956067D01*
X113444869Y-108067615D01*
X113236481Y-108256586D01*
X113068963Y-108482580D01*
X112948754Y-108736913D01*
X112908096Y-108870961D01*
X113030085Y-109093000D01*
X114173000Y-109093000D01*
X114173000Y-109073000D01*
X114427000Y-109073000D01*
X114427000Y-109093000D01*
X114447000Y-109093000D01*
X114447000Y-109347000D01*
X114427000Y-109347000D01*
X114427000Y-109367000D01*
X114173000Y-109367000D01*
X114173000Y-109347000D01*
X113030085Y-109347000D01*
X112908096Y-109569039D01*
X112948754Y-109703087D01*
X113068963Y-109957420D01*
X113236481Y-110183414D01*
X113444869Y-110372385D01*
X113630865Y-110483933D01*
X113620273Y-110488320D01*
X113385241Y-110645363D01*
X113185363Y-110845241D01*
X113083293Y-110998000D01*
X101129423Y-110998000D01*
X101092000Y-110994314D01*
X101054577Y-110998000D01*
X101054574Y-110998000D01*
X100942622Y-111009026D01*
X100865084Y-111032547D01*
X104455631Y-107442000D01*
X113083293Y-107442000D01*
X113185363Y-107594759D01*
G37*
%TD.AperFunction*%
%TD*%
M02*
