M48
; DRILL file {KiCad 5.1.7} date Sat Oct 24 12:31:27 2020
; FORMAT={-:-/ absolute / inch / decimal}
; #@! TF.CreationDate,2020-10-24T12:31:27-03:00
; #@! TF.GenerationSoftware,Kicad,Pcbnew,5.1.7
; #@! TF.FileFunction,NonPlated,1,2,NPTH
FMAT,2
INCH
T1C0.0354
%
G90
G05
T1
X4.4134Y-5.5
X4.5866Y-5.5
T0
M30
